# MagicaVoxel @ ephtracy

# material
mtllib Puente.mtl
usemtl palette

# normals
vn -1 0 0
vn 1 0 0
vn 0 0 1
vn 0 0 -1
vn 0 -1 0
vn 0 1 0

# texcoords
vt 0.275391 0.5
vt 0.302734 0.5
vt 0.326172 0.5
vt 0.333984 0.5
vt 0.337891 0.5
vt 0.541016 0.5
vt 0.693359 0.5
vt 0.728516 0.5
vt 0.912109 0.5
vt 0.923828 0.5
vt 0.958984 0.5

# verts
v -45 0 45
v -45 0 19
v -45 0 -19
v -45 0 -45
v -45 10 19
v -45 10 -19
v -45 16 45
v -45 16 19
v -45 16 -19
v -45 16 -45
v -45 20 45
v -45 20 19
v -45 20 -19
v -45 20 -45
v -39 20 39
v -39 20 38
v -39 20 -38
v -39 20 -39
v -39 22 39
v -39 22 38
v -39 22 -38
v -39 22 -39
v -34 20 23
v -34 20 22
v -34 20 -22
v -34 20 -23
v -34 23 23
v -34 23 22
v -34 23 -22
v -34 23 -23
v -31 20 33
v -31 20 32
v -31 20 -32
v -31 20 -33
v -31 23 33
v -31 23 32
v -31 23 -32
v -31 23 -33
v -21 20 41
v -21 20 40
v -21 20 -40
v -21 20 -41
v -21 22 41
v -21 22 40
v -21 22 -40
v -21 22 -41
v -20 33 24
v -20 33 18
v -20 33 -18
v -20 33 -24
v -20 34 24
v -20 34 18
v -20 34 -18
v -20 34 -24
v -19 18 19
v -19 18 17
v -19 18 -17
v -19 18 -19
v -19 20 30
v -19 20 29
v -19 20 23
v -19 20 19
v -19 20 -19
v -19 20 -23
v -19 20 -29
v -19 20 -30
v -19 22 19
v -19 22 17
v -19 22 -17
v -19 22 -19
v -19 23 30
v -19 23 29
v -19 23 -29
v -19 23 -30
v -19 32 11
v -19 32 9
v -19 32 -9
v -19 32 -11
v -19 33 23
v -19 33 19
v -19 33 -19
v -19 33 -23
v -19 34 23
v -19 34 19
v -19 34 -19
v -19 34 -23
v -19 35 11
v -19 35 9
v -19 35 -9
v -19 35 -11
v -19 36 23
v -19 36 19
v -19 36 -19
v -19 36 -23
v -18 20 15
v -18 20 11
v -18 20 9
v -18 20 5
v -18 20 3
v -18 20 -3
v -18 20 -5
v -18 20 -9
v -18 20 -11
v -18 20 -15
v -18 22 15
v -18 22 11
v -18 22 9
v -18 22 5
v -18 22 3
v -18 22 -3
v -18 22 -5
v -18 22 -9
v -18 22 -11
v -18 22 -15
v -18 32 11
v -18 32 9
v -18 32 -9
v -18 32 -11
v -18 33 18
v -18 33 11
v -18 33 9
v -18 33 -9
v -18 33 -11
v -18 33 -18
v -18 34 18
v -18 34 11
v -18 34 9
v -18 34 -9
v -18 34 -11
v -18 34 -18
v -13 18 34
v -13 18 27
v -13 18 -27
v -13 18 -34
v -13 19 34
v -13 19 27
v -13 19 -27
v -13 19 -34
v -12 18 44
v -12 18 41
v -12 18 40
v -12 18 38
v -12 18 26
v -12 18 23
v -12 18 -23
v -12 18 -26
v -12 18 -38
v -12 18 -40
v -12 18 -41
v -12 18 -44
v -12 19 44
v -12 19 41
v -12 19 40
v -12 19 38
v -12 19 26
v -12 19 23
v -12 19 -23
v -12 19 -26
v -12 19 -38
v -12 19 -40
v -12 19 -41
v -12 19 -44
v -11 18 37
v -11 18 36
v -11 18 -36
v -11 18 -37
v -11 19 37
v -11 19 36
v -11 19 -36
v -11 19 -37
v -9 18 38
v -9 18 35
v -9 18 26
v -9 18 21
v -9 18 -21
v -9 18 -26
v -9 18 -35
v -9 18 -38
v -9 19 38
v -9 19 35
v -9 19 26
v -9 19 21
v -9 19 -21
v -9 19 -26
v -9 19 -35
v -9 19 -38
v -8 18 40
v -8 18 39
v -8 18 -39
v -8 18 -40
v -8 19 40
v -8 19 39
v -8 19 -39
v -8 19 -40
v -6 18 44
v -6 18 40
v -6 18 -40
v -6 18 -44
v -6 19 44
v -6 19 40
v -6 19 -40
v -6 19 -44
v -5 18 38
v -5 18 31
v -5 18 29
v -5 18 28
v -5 18 -28
v -5 18 -29
v -5 18 -31
v -5 18 -38
v -5 19 38
v -5 19 31
v -5 19 29
v -5 19 28
v -5 19 -28
v -5 19 -29
v -5 19 -31
v -5 19 -38
v -3 18 29
v -3 18 21
v -3 18 -21
v -3 18 -29
v -3 19 29
v -3 19 21
v -3 19 -21
v -3 19 -29
v -1 18 43
v -1 18 39
v -1 18 -39
v -1 18 -43
v -1 19 43
v -1 19 39
v -1 19 -39
v -1 19 -43
v 2 18 44
v 2 18 40
v 2 18 -40
v 2 18 -44
v 2 19 44
v 2 19 40
v 2 19 -40
v 2 19 -44
v 4 18 29
v 4 18 28
v 4 18 26
v 4 18 21
v 4 18 -21
v 4 18 -26
v 4 18 -28
v 4 18 -29
v 4 19 29
v 4 19 28
v 4 19 26
v 4 19 21
v 4 19 -21
v 4 19 -26
v 4 19 -28
v 4 19 -29
v 6 18 38
v 6 18 35
v 6 18 34
v 6 18 27
v 6 18 -27
v 6 18 -34
v 6 18 -35
v 6 18 -38
v 6 19 38
v 6 19 35
v 6 19 34
v 6 19 27
v 6 19 -27
v 6 19 -34
v 6 19 -35
v 6 19 -38
v 7 18 40
v 7 18 39
v 7 18 -39
v 7 18 -40
v 7 19 40
v 7 19 39
v 7 19 -39
v 7 19 -40
v 8 18 44
v 8 18 41
v 8 18 -41
v 8 18 -44
v 8 19 44
v 8 19 41
v 8 19 -41
v 8 19 -44
v 10 18 40
v 10 18 38
v 10 18 37
v 10 18 36
v 10 18 26
v 10 18 23
v 10 18 -23
v 10 18 -26
v 10 18 -36
v 10 18 -37
v 10 18 -38
v 10 18 -40
v 10 19 40
v 10 19 38
v 10 19 37
v 10 19 36
v 10 19 26
v 10 19 23
v 10 19 -23
v 10 19 -26
v 10 19 -36
v 10 19 -37
v 10 19 -38
v 10 19 -40
v 14 33 24
v 14 33 18
v 14 33 -18
v 14 33 -24
v 14 34 24
v 14 34 18
v 14 34 -18
v 14 34 -24
v 15 18 45
v 15 18 21
v 15 18 19
v 15 18 -19
v 15 18 -21
v 15 18 -45
v 15 20 45
v 15 20 23
v 15 20 21
v 15 20 19
v 15 20 -19
v 15 20 -21
v 15 20 -23
v 15 20 -45
v 15 22 21
v 15 22 19
v 15 22 -19
v 15 22 -21
v 15 31 11
v 15 31 9
v 15 31 -9
v 15 31 -11
v 15 33 23
v 15 33 19
v 15 33 -19
v 15 33 -23
v 15 34 23
v 15 34 19
v 15 34 -19
v 15 34 -23
v 15 35 11
v 15 35 9
v 15 35 -9
v 15 35 -11
v 15 36 23
v 15 36 19
v 15 36 -19
v 15 36 -23
v 16 20 11
v 16 20 9
v 16 20 -9
v 16 20 -11
v 16 22 11
v 16 22 9
v 16 22 -9
v 16 22 -11
v 16 31 11
v 16 31 9
v 16 31 -9
v 16 31 -11
v 16 33 18
v 16 33 11
v 16 33 9
v 16 33 -9
v 16 33 -11
v 16 33 -18
v 16 34 18
v 16 34 11
v 16 34 9
v 16 34 -9
v 16 34 -11
v 16 34 -18
v 18 20 30
v 18 20 29
v 18 20 -29
v 18 20 -30
v 18 23 30
v 18 23 29
v 18 23 -29
v 18 23 -30
v 20 20 41
v 20 20 40
v 20 20 -40
v 20 20 -41
v 20 22 41
v 20 22 40
v 20 22 -40
v 20 22 -41
v 30 20 33
v 30 20 32
v 30 20 -32
v 30 20 -33
v 30 23 33
v 30 23 32
v 30 23 -32
v 30 23 -33
v 33 20 23
v 33 20 22
v 33 20 -22
v 33 20 -23
v 33 23 23
v 33 23 22
v 33 23 -22
v 33 23 -23
v 38 20 39
v 38 20 38
v 38 20 -38
v 38 20 -39
v 38 22 39
v 38 22 38
v 38 22 -38
v 38 22 -39
v -38 20 39
v -38 20 38
v -38 20 -38
v -38 20 -39
v -38 22 39
v -38 22 38
v -38 22 -38
v -38 22 -39
v -33 20 23
v -33 20 22
v -33 20 -22
v -33 20 -23
v -33 23 23
v -33 23 22
v -33 23 -22
v -33 23 -23
v -30 20 33
v -30 20 32
v -30 20 -32
v -30 20 -33
v -30 23 33
v -30 23 32
v -30 23 -32
v -30 23 -33
v -20 20 41
v -20 20 40
v -20 20 -40
v -20 20 -41
v -20 22 41
v -20 22 40
v -20 22 -40
v -20 22 -41
v -18 20 30
v -18 20 29
v -18 20 -29
v -18 20 -30
v -18 23 30
v -18 23 29
v -18 23 -29
v -18 23 -30
v -16 20 11
v -16 20 9
v -16 20 -9
v -16 20 -11
v -16 22 11
v -16 22 9
v -16 22 -9
v -16 22 -11
v -16 31 11
v -16 31 9
v -16 31 -9
v -16 31 -11
v -16 33 18
v -16 33 11
v -16 33 9
v -16 33 -9
v -16 33 -11
v -16 33 -18
v -16 34 18
v -16 34 11
v -16 34 9
v -16 34 -9
v -16 34 -11
v -16 34 -18
v -15 18 45
v -15 18 21
v -15 18 19
v -15 18 -19
v -15 18 -21
v -15 18 -45
v -15 20 45
v -15 20 23
v -15 20 21
v -15 20 19
v -15 20 -19
v -15 20 -21
v -15 20 -23
v -15 20 -45
v -15 22 21
v -15 22 19
v -15 22 -19
v -15 22 -21
v -15 31 11
v -15 31 9
v -15 31 -9
v -15 31 -11
v -15 33 23
v -15 33 19
v -15 33 -19
v -15 33 -23
v -15 34 23
v -15 34 19
v -15 34 -19
v -15 34 -23
v -15 35 11
v -15 35 9
v -15 35 -9
v -15 35 -11
v -15 36 23
v -15 36 19
v -15 36 -19
v -15 36 -23
v -14 33 24
v -14 33 18
v -14 33 -18
v -14 33 -24
v -14 34 24
v -14 34 18
v -14 34 -18
v -14 34 -24
v -10 18 40
v -10 18 38
v -10 18 37
v -10 18 36
v -10 18 26
v -10 18 23
v -10 18 -23
v -10 18 -26
v -10 18 -36
v -10 18 -37
v -10 18 -38
v -10 18 -40
v -10 19 40
v -10 19 38
v -10 19 37
v -10 19 36
v -10 19 26
v -10 19 23
v -10 19 -23
v -10 19 -26
v -10 19 -36
v -10 19 -37
v -10 19 -38
v -10 19 -40
v -8 18 44
v -8 18 41
v -8 18 -41
v -8 18 -44
v -8 19 44
v -8 19 41
v -8 19 -41
v -8 19 -44
v -7 18 40
v -7 18 39
v -7 18 -39
v -7 18 -40
v -7 19 40
v -7 19 39
v -7 19 -39
v -7 19 -40
v -6 18 38
v -6 18 35
v -6 18 34
v -6 18 27
v -6 18 -27
v -6 18 -34
v -6 18 -35
v -6 18 -38
v -6 19 38
v -6 19 35
v -6 19 34
v -6 19 27
v -6 19 -27
v -6 19 -34
v -6 19 -35
v -6 19 -38
v -4 18 29
v -4 18 28
v -4 18 26
v -4 18 21
v -4 18 -21
v -4 18 -26
v -4 18 -28
v -4 18 -29
v -4 19 29
v -4 19 28
v -4 19 26
v -4 19 21
v -4 19 -21
v -4 19 -26
v -4 19 -28
v -4 19 -29
v -2 18 44
v -2 18 40
v -2 18 -40
v -2 18 -44
v -2 19 44
v -2 19 40
v -2 19 -40
v -2 19 -44
v 1 18 43
v 1 18 39
v 1 18 -39
v 1 18 -43
v 1 19 43
v 1 19 39
v 1 19 -39
v 1 19 -43
v 3 18 29
v 3 18 21
v 3 18 -21
v 3 18 -29
v 3 19 29
v 3 19 21
v 3 19 -21
v 3 19 -29
v 5 18 38
v 5 18 31
v 5 18 29
v 5 18 28
v 5 18 -28
v 5 18 -29
v 5 18 -31
v 5 18 -38
v 5 19 38
v 5 19 31
v 5 19 29
v 5 19 28
v 5 19 -28
v 5 19 -29
v 5 19 -31
v 5 19 -38
v 6 18 44
v 6 18 40
v 6 18 -40
v 6 18 -44
v 6 19 44
v 6 19 40
v 6 19 -40
v 6 19 -44
v 8 18 40
v 8 18 39
v 8 18 -39
v 8 18 -40
v 8 19 40
v 8 19 39
v 8 19 -39
v 8 19 -40
v 9 18 38
v 9 18 35
v 9 18 26
v 9 18 21
v 9 18 -21
v 9 18 -26
v 9 18 -35
v 9 18 -38
v 9 19 38
v 9 19 35
v 9 19 26
v 9 19 21
v 9 19 -21
v 9 19 -26
v 9 19 -35
v 9 19 -38
v 11 18 37
v 11 18 36
v 11 18 -36
v 11 18 -37
v 11 19 37
v 11 19 36
v 11 19 -36
v 11 19 -37
v 12 18 44
v 12 18 41
v 12 18 40
v 12 18 38
v 12 18 26
v 12 18 23
v 12 18 -23
v 12 18 -26
v 12 18 -38
v 12 18 -40
v 12 18 -41
v 12 18 -44
v 12 19 44
v 12 19 41
v 12 19 40
v 12 19 38
v 12 19 26
v 12 19 23
v 12 19 -23
v 12 19 -26
v 12 19 -38
v 12 19 -40
v 12 19 -41
v 12 19 -44
v 13 18 34
v 13 18 27
v 13 18 -27
v 13 18 -34
v 13 19 34
v 13 19 27
v 13 19 -27
v 13 19 -34
v 18 20 15
v 18 20 11
v 18 20 9
v 18 20 5
v 18 20 3
v 18 20 -3
v 18 20 -5
v 18 20 -9
v 18 20 -11
v 18 20 -15
v 18 22 15
v 18 22 11
v 18 22 9
v 18 22 5
v 18 22 3
v 18 22 -3
v 18 22 -5
v 18 22 -9
v 18 22 -11
v 18 22 -15
v 18 32 11
v 18 32 9
v 18 32 -9
v 18 32 -11
v 18 33 18
v 18 33 11
v 18 33 9
v 18 33 -9
v 18 33 -11
v 18 33 -18
v 18 34 18
v 18 34 11
v 18 34 9
v 18 34 -9
v 18 34 -11
v 18 34 -18
v 19 18 19
v 19 18 17
v 19 18 -17
v 19 18 -19
v 19 20 30
v 19 20 29
v 19 20 23
v 19 20 19
v 19 20 -19
v 19 20 -23
v 19 20 -29
v 19 20 -30
v 19 22 19
v 19 22 17
v 19 22 -17
v 19 22 -19
v 19 23 30
v 19 23 29
v 19 23 -29
v 19 23 -30
v 19 32 11
v 19 32 9
v 19 32 -9
v 19 32 -11
v 19 33 23
v 19 33 19
v 19 33 -19
v 19 33 -23
v 19 34 23
v 19 34 19
v 19 34 -19
v 19 34 -23
v 19 35 11
v 19 35 9
v 19 35 -9
v 19 35 -11
v 19 36 23
v 19 36 19
v 19 36 -19
v 19 36 -23
v 20 33 24
v 20 33 18
v 20 33 -18
v 20 33 -24
v 20 34 24
v 20 34 18
v 20 34 -18
v 20 34 -24
v 21 20 41
v 21 20 40
v 21 20 -40
v 21 20 -41
v 21 22 41
v 21 22 40
v 21 22 -40
v 21 22 -41
v 31 20 33
v 31 20 32
v 31 20 -32
v 31 20 -33
v 31 23 33
v 31 23 32
v 31 23 -32
v 31 23 -33
v 34 20 23
v 34 20 22
v 34 20 -22
v 34 20 -23
v 34 23 23
v 34 23 22
v 34 23 -22
v 34 23 -23
v 39 20 39
v 39 20 38
v 39 20 -38
v 39 20 -39
v 39 22 39
v 39 22 38
v 39 22 -38
v 39 22 -39
v 45 0 45
v 45 0 19
v 45 0 -19
v 45 0 -45
v 45 10 19
v 45 10 -19
v 45 16 45
v 45 16 19
v 45 16 -19
v 45 16 -45
v 45 20 45
v 45 20 19
v 45 20 -19
v 45 20 -45
v -45 0 45
v -45 16 45
v -45 20 45
v -15 16 45
v -15 18 45
v -15 20 45
v 15 16 45
v 15 18 45
v 15 20 45
v 45 0 45
v 45 16 45
v 45 20 45
v -12 18 44
v -12 19 44
v -8 18 44
v -8 19 44
v -6 18 44
v -6 19 44
v -2 18 44
v -2 19 44
v 2 18 44
v 2 19 44
v 6 18 44
v 6 19 44
v 8 18 44
v 8 19 44
v 12 18 44
v 12 19 44
v -1 18 43
v -1 19 43
v 1 18 43
v 1 19 43
v -21 20 41
v -21 22 41
v -20 20 41
v -20 22 41
v 20 20 41
v 20 22 41
v 21 20 41
v 21 22 41
v -12 18 40
v -12 19 40
v -10 18 40
v -10 19 40
v -8 18 40
v -8 19 40
v -7 18 40
v -7 19 40
v 7 18 40
v 7 19 40
v 8 18 40
v 8 19 40
v 10 18 40
v 10 19 40
v 12 18 40
v 12 19 40
v -39 20 39
v -39 22 39
v -38 20 39
v -38 22 39
v 38 20 39
v 38 22 39
v 39 20 39
v 39 22 39
v -9 18 38
v -9 19 38
v -6 18 38
v -6 19 38
v -5 18 38
v -5 19 38
v 5 18 38
v 5 19 38
v 6 18 38
v 6 19 38
v 9 18 38
v 9 19 38
v -11 18 37
v -11 19 37
v -10 18 37
v -10 19 37
v 10 18 37
v 10 19 37
v 11 18 37
v 11 19 37
v -13 18 34
v -13 19 34
v -6 18 34
v -6 19 34
v 6 18 34
v 6 19 34
v 13 18 34
v 13 19 34
v -31 20 33
v -31 23 33
v -30 20 33
v -30 23 33
v 30 20 33
v 30 23 33
v 31 20 33
v 31 23 33
v -19 20 30
v -19 23 30
v -18 20 30
v -18 23 30
v 18 20 30
v 18 23 30
v 19 20 30
v 19 23 30
v -5 18 29
v -5 19 29
v -4 18 29
v -4 19 29
v -3 18 29
v -3 19 29
v 3 18 29
v 3 19 29
v 4 18 29
v 4 19 29
v 5 18 29
v 5 19 29
v -12 18 26
v -12 19 26
v -10 18 26
v -10 19 26
v -9 18 26
v -9 19 26
v -4 18 26
v -4 19 26
v 4 18 26
v 4 19 26
v 9 18 26
v 9 19 26
v 10 18 26
v 10 19 26
v 12 18 26
v 12 19 26
v -20 33 24
v -20 34 24
v -14 33 24
v -14 34 24
v 14 33 24
v 14 34 24
v 20 33 24
v 20 34 24
v -34 20 23
v -34 23 23
v -33 20 23
v -33 23 23
v -19 20 23
v -19 33 23
v -19 34 23
v -19 36 23
v -15 20 23
v -15 33 23
v -15 34 23
v -15 36 23
v 15 20 23
v 15 33 23
v 15 34 23
v 15 36 23
v 19 20 23
v 19 33 23
v 19 34 23
v 19 36 23
v 33 20 23
v 33 23 23
v 34 20 23
v 34 23 23
v -15 20 21
v -15 22 21
v 15 20 21
v 15 22 21
v -15 18 19
v -15 20 19
v 15 18 19
v 15 20 19
v -18 20 15
v -18 22 15
v 18 20 15
v 18 22 15
v -19 32 11
v -19 35 11
v -18 22 11
v -18 32 11
v -18 33 11
v -18 34 11
v -16 22 11
v -16 31 11
v -16 33 11
v -16 34 11
v -15 31 11
v -15 35 11
v 15 31 11
v 15 35 11
v 16 22 11
v 16 31 11
v 16 33 11
v 16 34 11
v 18 22 11
v 18 32 11
v 18 33 11
v 18 34 11
v 19 32 11
v 19 35 11
v -16 20 9
v -16 22 9
v 16 20 9
v 16 22 9
v -18 20 3
v -18 22 3
v 18 20 3
v 18 22 3
v -18 20 -5
v -18 22 -5
v 18 20 -5
v 18 22 -5
v -19 32 -9
v -19 35 -9
v -18 22 -9
v -18 32 -9
v -18 33 -9
v -18 34 -9
v -16 22 -9
v -16 31 -9
v -16 33 -9
v -16 34 -9
v -15 31 -9
v -15 35 -9
v 15 31 -9
v 15 35 -9
v 16 22 -9
v 16 31 -9
v 16 33 -9
v 16 34 -9
v 18 22 -9
v 18 32 -9
v 18 33 -9
v 18 34 -9
v 19 32 -9
v 19 35 -9
v -16 20 -11
v -16 22 -11
v 16 20 -11
v 16 22 -11
v -19 18 -17
v -19 22 -17
v 19 18 -17
v 19 22 -17
v -20 33 -18
v -20 34 -18
v -18 33 -18
v -18 34 -18
v -16 33 -18
v -16 34 -18
v -14 33 -18
v -14 34 -18
v 14 33 -18
v 14 34 -18
v 16 33 -18
v 16 34 -18
v 18 33 -18
v 18 34 -18
v 20 33 -18
v 20 34 -18
v -45 10 -19
v -45 16 -19
v -45 20 -19
v -19 18 -19
v -19 20 -19
v -19 22 -19
v -19 33 -19
v -19 34 -19
v -19 36 -19
v -15 16 -19
v -15 18 -19
v -15 22 -19
v -15 33 -19
v -15 34 -19
v -15 36 -19
v 15 16 -19
v 15 18 -19
v 15 22 -19
v 15 33 -19
v 15 34 -19
v 15 36 -19
v 19 18 -19
v 19 20 -19
v 19 22 -19
v 19 33 -19
v 19 34 -19
v 19 36 -19
v 45 10 -19
v 45 16 -19
v 45 20 -19
v -9 18 -21
v -9 19 -21
v -4 18 -21
v -4 19 -21
v -3 18 -21
v -3 19 -21
v 3 18 -21
v 3 19 -21
v 4 18 -21
v 4 19 -21
v 9 18 -21
v 9 19 -21
v -34 20 -22
v -34 23 -22
v -33 20 -22
v -33 23 -22
v 33 20 -22
v 33 23 -22
v 34 20 -22
v 34 23 -22
v -12 18 -23
v -12 19 -23
v -10 18 -23
v -10 19 -23
v 10 18 -23
v 10 19 -23
v 12 18 -23
v 12 19 -23
v -13 18 -27
v -13 19 -27
v -6 18 -27
v -6 19 -27
v 6 18 -27
v 6 19 -27
v 13 18 -27
v 13 19 -27
v -5 18 -28
v -5 19 -28
v -4 18 -28
v -4 19 -28
v 4 18 -28
v 4 19 -28
v 5 18 -28
v 5 19 -28
v -19 20 -29
v -19 23 -29
v -18 20 -29
v -18 23 -29
v 18 20 -29
v 18 23 -29
v 19 20 -29
v 19 23 -29
v -5 18 -31
v -5 19 -31
v 5 18 -31
v 5 19 -31
v -31 20 -32
v -31 23 -32
v -30 20 -32
v -30 23 -32
v 30 20 -32
v 30 23 -32
v 31 20 -32
v 31 23 -32
v -9 18 -35
v -9 19 -35
v -6 18 -35
v -6 19 -35
v 6 18 -35
v 6 19 -35
v 9 18 -35
v 9 19 -35
v -11 18 -36
v -11 19 -36
v -10 18 -36
v -10 19 -36
v 10 18 -36
v 10 19 -36
v 11 18 -36
v 11 19 -36
v -39 20 -38
v -39 22 -38
v -38 20 -38
v -38 22 -38
v -12 18 -38
v -12 19 -38
v -10 18 -38
v -10 19 -38
v 10 18 -38
v 10 19 -38
v 12 18 -38
v 12 19 -38
v 38 20 -38
v 38 22 -38
v 39 20 -38
v 39 22 -38
v -8 18 -39
v -8 19 -39
v -7 18 -39
v -7 19 -39
v -1 18 -39
v -1 19 -39
v 1 18 -39
v 1 19 -39
v 7 18 -39
v 7 19 -39
v 8 18 -39
v 8 19 -39
v -21 20 -40
v -21 22 -40
v -20 20 -40
v -20 22 -40
v -6 18 -40
v -6 19 -40
v -2 18 -40
v -2 19 -40
v 2 18 -40
v 2 19 -40
v 6 18 -40
v 6 19 -40
v 20 20 -40
v 20 22 -40
v 21 20 -40
v 21 22 -40
v -12 18 -41
v -12 19 -41
v -8 18 -41
v -8 19 -41
v 8 18 -41
v 8 19 -41
v 12 18 -41
v 12 19 -41
v -12 18 41
v -12 19 41
v -8 18 41
v -8 19 41
v 8 18 41
v 8 19 41
v 12 18 41
v 12 19 41
v -21 20 40
v -21 22 40
v -20 20 40
v -20 22 40
v -6 18 40
v -6 19 40
v -2 18 40
v -2 19 40
v 2 18 40
v 2 19 40
v 6 18 40
v 6 19 40
v 20 20 40
v 20 22 40
v 21 20 40
v 21 22 40
v -8 18 39
v -8 19 39
v -7 18 39
v -7 19 39
v -1 18 39
v -1 19 39
v 1 18 39
v 1 19 39
v 7 18 39
v 7 19 39
v 8 18 39
v 8 19 39
v -39 20 38
v -39 22 38
v -38 20 38
v -38 22 38
v -12 18 38
v -12 19 38
v -10 18 38
v -10 19 38
v 10 18 38
v 10 19 38
v 12 18 38
v 12 19 38
v 38 20 38
v 38 22 38
v 39 20 38
v 39 22 38
v -11 18 36
v -11 19 36
v -10 18 36
v -10 19 36
v 10 18 36
v 10 19 36
v 11 18 36
v 11 19 36
v -9 18 35
v -9 19 35
v -6 18 35
v -6 19 35
v 6 18 35
v 6 19 35
v 9 18 35
v 9 19 35
v -31 20 32
v -31 23 32
v -30 20 32
v -30 23 32
v 30 20 32
v 30 23 32
v 31 20 32
v 31 23 32
v -5 18 31
v -5 19 31
v 5 18 31
v 5 19 31
v -19 20 29
v -19 23 29
v -18 20 29
v -18 23 29
v 18 20 29
v 18 23 29
v 19 20 29
v 19 23 29
v -5 18 28
v -5 19 28
v -4 18 28
v -4 19 28
v 4 18 28
v 4 19 28
v 5 18 28
v 5 19 28
v -13 18 27
v -13 19 27
v -6 18 27
v -6 19 27
v 6 18 27
v 6 19 27
v 13 18 27
v 13 19 27
v -12 18 23
v -12 19 23
v -10 18 23
v -10 19 23
v 10 18 23
v 10 19 23
v 12 18 23
v 12 19 23
v -34 20 22
v -34 23 22
v -33 20 22
v -33 23 22
v 33 20 22
v 33 23 22
v 34 20 22
v 34 23 22
v -9 18 21
v -9 19 21
v -4 18 21
v -4 19 21
v -3 18 21
v -3 19 21
v 3 18 21
v 3 19 21
v 4 18 21
v 4 19 21
v 9 18 21
v 9 19 21
v -45 10 19
v -45 16 19
v -45 20 19
v -19 18 19
v -19 20 19
v -19 22 19
v -19 33 19
v -19 34 19
v -19 36 19
v -15 16 19
v -15 18 19
v -15 22 19
v -15 33 19
v -15 34 19
v -15 36 19
v 15 16 19
v 15 18 19
v 15 22 19
v 15 33 19
v 15 34 19
v 15 36 19
v 19 18 19
v 19 20 19
v 19 22 19
v 19 33 19
v 19 34 19
v 19 36 19
v 45 10 19
v 45 16 19
v 45 20 19
v -20 33 18
v -20 34 18
v -18 33 18
v -18 34 18
v -16 33 18
v -16 34 18
v -14 33 18
v -14 34 18
v 14 33 18
v 14 34 18
v 16 33 18
v 16 34 18
v 18 33 18
v 18 34 18
v 20 33 18
v 20 34 18
v -19 18 17
v -19 22 17
v 19 18 17
v 19 22 17
v -16 20 11
v -16 22 11
v 16 20 11
v 16 22 11
v -19 32 9
v -19 35 9
v -18 22 9
v -18 32 9
v -18 33 9
v -18 34 9
v -16 22 9
v -16 31 9
v -16 33 9
v -16 34 9
v -15 31 9
v -15 35 9
v 15 31 9
v 15 35 9
v 16 22 9
v 16 31 9
v 16 33 9
v 16 34 9
v 18 22 9
v 18 32 9
v 18 33 9
v 18 34 9
v 19 32 9
v 19 35 9
v -18 20 5
v -18 22 5
v 18 20 5
v 18 22 5
v -18 20 -3
v -18 22 -3
v 18 20 -3
v 18 22 -3
v -16 20 -9
v -16 22 -9
v 16 20 -9
v 16 22 -9
v -19 32 -11
v -19 35 -11
v -18 22 -11
v -18 32 -11
v -18 33 -11
v -18 34 -11
v -16 22 -11
v -16 31 -11
v -16 33 -11
v -16 34 -11
v -15 31 -11
v -15 35 -11
v 15 31 -11
v 15 35 -11
v 16 22 -11
v 16 31 -11
v 16 33 -11
v 16 34 -11
v 18 22 -11
v 18 32 -11
v 18 33 -11
v 18 34 -11
v 19 32 -11
v 19 35 -11
v -18 20 -15
v -18 22 -15
v 18 20 -15
v 18 22 -15
v -15 18 -19
v -15 20 -19
v 15 18 -19
v 15 20 -19
v -15 20 -21
v -15 22 -21
v 15 20 -21
v 15 22 -21
v -34 20 -23
v -34 23 -23
v -33 20 -23
v -33 23 -23
v -19 20 -23
v -19 33 -23
v -19 34 -23
v -19 36 -23
v -15 20 -23
v -15 33 -23
v -15 34 -23
v -15 36 -23
v 15 20 -23
v 15 33 -23
v 15 34 -23
v 15 36 -23
v 19 20 -23
v 19 33 -23
v 19 34 -23
v 19 36 -23
v 33 20 -23
v 33 23 -23
v 34 20 -23
v 34 23 -23
v -20 33 -24
v -20 34 -24
v -14 33 -24
v -14 34 -24
v 14 33 -24
v 14 34 -24
v 20 33 -24
v 20 34 -24
v -12 18 -26
v -12 19 -26
v -10 18 -26
v -10 19 -26
v -9 18 -26
v -9 19 -26
v -4 18 -26
v -4 19 -26
v 4 18 -26
v 4 19 -26
v 9 18 -26
v 9 19 -26
v 10 18 -26
v 10 19 -26
v 12 18 -26
v 12 19 -26
v -5 18 -29
v -5 19 -29
v -4 18 -29
v -4 19 -29
v -3 18 -29
v -3 19 -29
v 3 18 -29
v 3 19 -29
v 4 18 -29
v 4 19 -29
v 5 18 -29
v 5 19 -29
v -19 20 -30
v -19 23 -30
v -18 20 -30
v -18 23 -30
v 18 20 -30
v 18 23 -30
v 19 20 -30
v 19 23 -30
v -31 20 -33
v -31 23 -33
v -30 20 -33
v -30 23 -33
v 30 20 -33
v 30 23 -33
v 31 20 -33
v 31 23 -33
v -13 18 -34
v -13 19 -34
v -6 18 -34
v -6 19 -34
v 6 18 -34
v 6 19 -34
v 13 18 -34
v 13 19 -34
v -11 18 -37
v -11 19 -37
v -10 18 -37
v -10 19 -37
v 10 18 -37
v 10 19 -37
v 11 18 -37
v 11 19 -37
v -9 18 -38
v -9 19 -38
v -6 18 -38
v -6 19 -38
v -5 18 -38
v -5 19 -38
v 5 18 -38
v 5 19 -38
v 6 18 -38
v 6 19 -38
v 9 18 -38
v 9 19 -38
v -39 20 -39
v -39 22 -39
v -38 20 -39
v -38 22 -39
v 38 20 -39
v 38 22 -39
v 39 20 -39
v 39 22 -39
v -12 18 -40
v -12 19 -40
v -10 18 -40
v -10 19 -40
v -8 18 -40
v -8 19 -40
v -7 18 -40
v -7 19 -40
v 7 18 -40
v 7 19 -40
v 8 18 -40
v 8 19 -40
v 10 18 -40
v 10 19 -40
v 12 18 -40
v 12 19 -40
v -21 20 -41
v -21 22 -41
v -20 20 -41
v -20 22 -41
v 20 20 -41
v 20 22 -41
v 21 20 -41
v 21 22 -41
v -1 18 -43
v -1 19 -43
v 1 18 -43
v 1 19 -43
v -12 18 -44
v -12 19 -44
v -8 18 -44
v -8 19 -44
v -6 18 -44
v -6 19 -44
v -2 18 -44
v -2 19 -44
v 2 18 -44
v 2 19 -44
v 6 18 -44
v 6 19 -44
v 8 18 -44
v 8 19 -44
v 12 18 -44
v 12 19 -44
v -45 0 -45
v -45 16 -45
v -45 20 -45
v -15 16 -45
v -15 18 -45
v -15 20 -45
v 15 16 -45
v 15 18 -45
v 15 20 -45
v 45 0 -45
v 45 16 -45
v 45 20 -45
v -45 0 45
v 45 0 45
v -45 0 19
v -13 0 19
v 13 0 19
v 45 0 19
v -13 0 3
v 13 0 3
v -13 0 -3
v 13 0 -3
v -45 0 -19
v -13 0 -19
v 13 0 -19
v 45 0 -19
v -45 0 -45
v 45 0 -45
v -19 18 19
v -15 18 19
v 15 18 19
v 19 18 19
v -19 18 17
v 19 18 17
v -19 18 -17
v 19 18 -17
v -19 18 -19
v -15 18 -19
v 15 18 -19
v 19 18 -19
v -15 20 21
v 15 20 21
v -15 20 19
v 15 20 19
v -18 20 15
v 18 20 15
v -18 20 11
v -16 20 11
v 16 20 11
v 18 20 11
v -18 20 9
v -16 20 9
v 16 20 9
v 18 20 9
v -18 20 5
v 18 20 5
v -18 20 3
v 18 20 3
v -18 20 -3
v 18 20 -3
v -18 20 -5
v 18 20 -5
v -18 20 -9
v -16 20 -9
v 16 20 -9
v 18 20 -9
v -18 20 -11
v -16 20 -11
v 16 20 -11
v 18 20 -11
v -18 20 -15
v 18 20 -15
v -15 20 -19
v 15 20 -19
v -15 20 -21
v 15 20 -21
v -16 31 11
v -15 31 11
v 15 31 11
v 16 31 11
v -16 31 9
v -15 31 9
v 15 31 9
v 16 31 9
v -16 31 -9
v -15 31 -9
v 15 31 -9
v 16 31 -9
v -16 31 -11
v -15 31 -11
v 15 31 -11
v 16 31 -11
v -19 32 11
v -18 32 11
v 18 32 11
v 19 32 11
v -19 32 9
v -18 32 9
v 18 32 9
v 19 32 9
v -19 32 -9
v -18 32 -9
v 18 32 -9
v 19 32 -9
v -19 32 -11
v -18 32 -11
v 18 32 -11
v 19 32 -11
v -20 33 24
v -14 33 24
v 14 33 24
v 20 33 24
v -19 33 23
v -15 33 23
v 15 33 23
v 19 33 23
v -19 33 19
v -15 33 19
v 15 33 19
v 19 33 19
v -20 33 18
v -18 33 18
v -16 33 18
v -14 33 18
v 14 33 18
v 16 33 18
v 18 33 18
v 20 33 18
v -18 33 11
v -16 33 11
v 16 33 11
v 18 33 11
v -18 33 9
v -16 33 9
v 16 33 9
v 18 33 9
v -18 33 -9
v -16 33 -9
v 16 33 -9
v 18 33 -9
v -18 33 -11
v -16 33 -11
v 16 33 -11
v 18 33 -11
v -20 33 -18
v -18 33 -18
v -16 33 -18
v -14 33 -18
v 14 33 -18
v 16 33 -18
v 18 33 -18
v 20 33 -18
v -19 33 -19
v -15 33 -19
v 15 33 -19
v 19 33 -19
v -19 33 -23
v -15 33 -23
v 15 33 -23
v 19 33 -23
v -20 33 -24
v -14 33 -24
v 14 33 -24
v 20 33 -24
v -45 10 19
v 45 10 19
v -45 10 -19
v 45 10 -19
v -15 18 45
v 15 18 45
v -12 18 44
v -8 18 44
v -6 18 44
v -2 18 44
v 2 18 44
v 6 18 44
v 8 18 44
v 12 18 44
v -1 18 43
v 1 18 43
v -12 18 41
v -8 18 41
v 8 18 41
v 12 18 41
v -12 18 40
v -10 18 40
v -8 18 40
v -7 18 40
v -6 18 40
v -2 18 40
v 2 18 40
v 6 18 40
v 7 18 40
v 8 18 40
v 10 18 40
v 12 18 40
v -8 18 39
v -7 18 39
v -1 18 39
v 1 18 39
v 7 18 39
v 8 18 39
v -12 18 38
v -10 18 38
v -9 18 38
v -6 18 38
v -5 18 38
v 5 18 38
v 6 18 38
v 9 18 38
v 10 18 38
v 12 18 38
v -11 18 37
v -10 18 37
v 10 18 37
v 11 18 37
v -11 18 36
v -10 18 36
v 10 18 36
v 11 18 36
v -9 18 35
v -6 18 35
v 6 18 35
v 9 18 35
v -13 18 34
v -6 18 34
v 6 18 34
v 13 18 34
v -5 18 31
v 5 18 31
v -5 18 29
v -4 18 29
v -3 18 29
v 3 18 29
v 4 18 29
v 5 18 29
v -5 18 28
v -4 18 28
v 4 18 28
v 5 18 28
v -13 18 27
v -6 18 27
v 6 18 27
v 13 18 27
v -12 18 26
v -10 18 26
v -9 18 26
v -4 18 26
v 4 18 26
v 9 18 26
v 10 18 26
v 12 18 26
v -12 18 23
v -10 18 23
v 10 18 23
v 12 18 23
v -15 18 21
v -9 18 21
v -4 18 21
v -3 18 21
v 3 18 21
v 4 18 21
v 9 18 21
v 15 18 21
v -15 18 19
v 15 18 19
v -15 18 -19
v 15 18 -19
v -15 18 -21
v -9 18 -21
v -4 18 -21
v -3 18 -21
v 3 18 -21
v 4 18 -21
v 9 18 -21
v 15 18 -21
v -12 18 -23
v -10 18 -23
v 10 18 -23
v 12 18 -23
v -12 18 -26
v -10 18 -26
v -9 18 -26
v -4 18 -26
v 4 18 -26
v 9 18 -26
v 10 18 -26
v 12 18 -26
v -13 18 -27
v -6 18 -27
v 6 18 -27
v 13 18 -27
v -5 18 -28
v -4 18 -28
v 4 18 -28
v 5 18 -28
v -5 18 -29
v -4 18 -29
v -3 18 -29
v 3 18 -29
v 4 18 -29
v 5 18 -29
v -5 18 -31
v 5 18 -31
v -13 18 -34
v -6 18 -34
v 6 18 -34
v 13 18 -34
v -9 18 -35
v -6 18 -35
v 6 18 -35
v 9 18 -35
v -11 18 -36
v -10 18 -36
v 10 18 -36
v 11 18 -36
v -11 18 -37
v -10 18 -37
v 10 18 -37
v 11 18 -37
v -12 18 -38
v -10 18 -38
v -9 18 -38
v -6 18 -38
v -5 18 -38
v 5 18 -38
v 6 18 -38
v 9 18 -38
v 10 18 -38
v 12 18 -38
v -8 18 -39
v -7 18 -39
v -1 18 -39
v 1 18 -39
v 7 18 -39
v 8 18 -39
v -12 18 -40
v -10 18 -40
v -8 18 -40
v -7 18 -40
v -6 18 -40
v -2 18 -40
v 2 18 -40
v 6 18 -40
v 7 18 -40
v 8 18 -40
v 10 18 -40
v 12 18 -40
v -12 18 -41
v -8 18 -41
v 8 18 -41
v 12 18 -41
v -1 18 -43
v 1 18 -43
v -12 18 -44
v -8 18 -44
v -6 18 -44
v -2 18 -44
v 2 18 -44
v 6 18 -44
v 8 18 -44
v 12 18 -44
v -15 18 -45
v 15 18 -45
v -12 19 44
v -8 19 44
v -6 19 44
v -2 19 44
v 2 19 44
v 6 19 44
v 8 19 44
v 12 19 44
v -1 19 43
v 1 19 43
v -12 19 41
v -8 19 41
v 8 19 41
v 12 19 41
v -12 19 40
v -10 19 40
v -8 19 40
v -7 19 40
v -6 19 40
v -2 19 40
v 2 19 40
v 6 19 40
v 7 19 40
v 8 19 40
v 10 19 40
v 12 19 40
v -8 19 39
v -7 19 39
v -1 19 39
v 1 19 39
v 7 19 39
v 8 19 39
v -12 19 38
v -10 19 38
v -9 19 38
v -6 19 38
v -5 19 38
v 5 19 38
v 6 19 38
v 9 19 38
v 10 19 38
v 12 19 38
v -11 19 37
v -10 19 37
v 10 19 37
v 11 19 37
v -11 19 36
v -10 19 36
v 10 19 36
v 11 19 36
v -9 19 35
v -6 19 35
v 6 19 35
v 9 19 35
v -13 19 34
v -6 19 34
v 6 19 34
v 13 19 34
v -5 19 31
v 5 19 31
v -5 19 29
v -4 19 29
v -3 19 29
v 3 19 29
v 4 19 29
v 5 19 29
v -5 19 28
v -4 19 28
v 4 19 28
v 5 19 28
v -13 19 27
v -6 19 27
v 6 19 27
v 13 19 27
v -12 19 26
v -10 19 26
v -9 19 26
v -4 19 26
v 4 19 26
v 9 19 26
v 10 19 26
v 12 19 26
v -12 19 23
v -10 19 23
v 10 19 23
v 12 19 23
v -9 19 21
v -4 19 21
v -3 19 21
v 3 19 21
v 4 19 21
v 9 19 21
v -9 19 -21
v -4 19 -21
v -3 19 -21
v 3 19 -21
v 4 19 -21
v 9 19 -21
v -12 19 -23
v -10 19 -23
v 10 19 -23
v 12 19 -23
v -12 19 -26
v -10 19 -26
v -9 19 -26
v -4 19 -26
v 4 19 -26
v 9 19 -26
v 10 19 -26
v 12 19 -26
v -13 19 -27
v -6 19 -27
v 6 19 -27
v 13 19 -27
v -5 19 -28
v -4 19 -28
v 4 19 -28
v 5 19 -28
v -5 19 -29
v -4 19 -29
v -3 19 -29
v 3 19 -29
v 4 19 -29
v 5 19 -29
v -5 19 -31
v 5 19 -31
v -13 19 -34
v -6 19 -34
v 6 19 -34
v 13 19 -34
v -9 19 -35
v -6 19 -35
v 6 19 -35
v 9 19 -35
v -11 19 -36
v -10 19 -36
v 10 19 -36
v 11 19 -36
v -11 19 -37
v -10 19 -37
v 10 19 -37
v 11 19 -37
v -12 19 -38
v -10 19 -38
v -9 19 -38
v -6 19 -38
v -5 19 -38
v 5 19 -38
v 6 19 -38
v 9 19 -38
v 10 19 -38
v 12 19 -38
v -8 19 -39
v -7 19 -39
v -1 19 -39
v 1 19 -39
v 7 19 -39
v 8 19 -39
v -12 19 -40
v -10 19 -40
v -8 19 -40
v -7 19 -40
v -6 19 -40
v -2 19 -40
v 2 19 -40
v 6 19 -40
v 7 19 -40
v 8 19 -40
v 10 19 -40
v 12 19 -40
v -12 19 -41
v -8 19 -41
v 8 19 -41
v 12 19 -41
v -1 19 -43
v 1 19 -43
v -12 19 -44
v -8 19 -44
v -6 19 -44
v -2 19 -44
v 2 19 -44
v 6 19 -44
v 8 19 -44
v 12 19 -44
v -45 20 45
v -15 20 45
v 15 20 45
v 45 20 45
v -21 20 41
v -20 20 41
v 20 20 41
v 21 20 41
v -21 20 40
v -20 20 40
v 20 20 40
v 21 20 40
v -39 20 39
v -38 20 39
v 38 20 39
v 39 20 39
v -39 20 38
v -38 20 38
v 38 20 38
v 39 20 38
v -31 20 33
v -30 20 33
v 30 20 33
v 31 20 33
v -31 20 32
v -30 20 32
v 30 20 32
v 31 20 32
v -19 20 30
v -18 20 30
v 18 20 30
v 19 20 30
v -19 20 29
v -18 20 29
v 18 20 29
v 19 20 29
v -34 20 23
v -33 20 23
v -19 20 23
v -15 20 23
v 15 20 23
v 19 20 23
v 33 20 23
v 34 20 23
v -34 20 22
v -33 20 22
v 33 20 22
v 34 20 22
v -45 20 19
v -19 20 19
v 19 20 19
v 45 20 19
v -45 20 -19
v -19 20 -19
v 19 20 -19
v 45 20 -19
v -34 20 -22
v -33 20 -22
v 33 20 -22
v 34 20 -22
v -34 20 -23
v -33 20 -23
v -19 20 -23
v -15 20 -23
v 15 20 -23
v 19 20 -23
v 33 20 -23
v 34 20 -23
v -19 20 -29
v -18 20 -29
v 18 20 -29
v 19 20 -29
v -19 20 -30
v -18 20 -30
v 18 20 -30
v 19 20 -30
v -31 20 -32
v -30 20 -32
v 30 20 -32
v 31 20 -32
v -31 20 -33
v -30 20 -33
v 30 20 -33
v 31 20 -33
v -39 20 -38
v -38 20 -38
v 38 20 -38
v 39 20 -38
v -39 20 -39
v -38 20 -39
v 38 20 -39
v 39 20 -39
v -21 20 -40
v -20 20 -40
v 20 20 -40
v 21 20 -40
v -21 20 -41
v -20 20 -41
v 20 20 -41
v 21 20 -41
v -45 20 -45
v -15 20 -45
v 15 20 -45
v 45 20 -45
v -21 22 41
v -20 22 41
v 20 22 41
v 21 22 41
v -21 22 40
v -20 22 40
v 20 22 40
v 21 22 40
v -39 22 39
v -38 22 39
v 38 22 39
v 39 22 39
v -39 22 38
v -38 22 38
v 38 22 38
v 39 22 38
v -15 22 21
v 15 22 21
v -19 22 19
v -15 22 19
v 15 22 19
v 19 22 19
v -19 22 17
v 19 22 17
v -18 22 15
v 18 22 15
v -18 22 11
v -16 22 11
v 16 22 11
v 18 22 11
v -18 22 9
v -16 22 9
v 16 22 9
v 18 22 9
v -18 22 5
v 18 22 5
v -18 22 3
v 18 22 3
v -18 22 -3
v 18 22 -3
v -18 22 -5
v 18 22 -5
v -18 22 -9
v -16 22 -9
v 16 22 -9
v 18 22 -9
v -18 22 -11
v -16 22 -11
v 16 22 -11
v 18 22 -11
v -18 22 -15
v 18 22 -15
v -19 22 -17
v 19 22 -17
v -19 22 -19
v -15 22 -19
v 15 22 -19
v 19 22 -19
v -15 22 -21
v 15 22 -21
v -39 22 -38
v -38 22 -38
v 38 22 -38
v 39 22 -38
v -39 22 -39
v -38 22 -39
v 38 22 -39
v 39 22 -39
v -21 22 -40
v -20 22 -40
v 20 22 -40
v 21 22 -40
v -21 22 -41
v -20 22 -41
v 20 22 -41
v 21 22 -41
v -31 23 33
v -30 23 33
v 30 23 33
v 31 23 33
v -31 23 32
v -30 23 32
v 30 23 32
v 31 23 32
v -19 23 30
v -18 23 30
v 18 23 30
v 19 23 30
v -19 23 29
v -18 23 29
v 18 23 29
v 19 23 29
v -34 23 23
v -33 23 23
v 33 23 23
v 34 23 23
v -34 23 22
v -33 23 22
v 33 23 22
v 34 23 22
v -34 23 -22
v -33 23 -22
v 33 23 -22
v 34 23 -22
v -34 23 -23
v -33 23 -23
v 33 23 -23
v 34 23 -23
v -19 23 -29
v -18 23 -29
v 18 23 -29
v 19 23 -29
v -19 23 -30
v -18 23 -30
v 18 23 -30
v 19 23 -30
v -31 23 -32
v -30 23 -32
v 30 23 -32
v 31 23 -32
v -31 23 -33
v -30 23 -33
v 30 23 -33
v 31 23 -33
v -20 34 24
v -14 34 24
v 14 34 24
v 20 34 24
v -19 34 23
v -15 34 23
v 15 34 23
v 19 34 23
v -19 34 19
v -15 34 19
v 15 34 19
v 19 34 19
v -20 34 18
v -18 34 18
v -16 34 18
v -14 34 18
v 14 34 18
v 16 34 18
v 18 34 18
v 20 34 18
v -18 34 11
v -16 34 11
v 16 34 11
v 18 34 11
v -18 34 9
v -16 34 9
v 16 34 9
v 18 34 9
v -18 34 -9
v -16 34 -9
v 16 34 -9
v 18 34 -9
v -18 34 -11
v -16 34 -11
v 16 34 -11
v 18 34 -11
v -20 34 -18
v -18 34 -18
v -16 34 -18
v -14 34 -18
v 14 34 -18
v 16 34 -18
v 18 34 -18
v 20 34 -18
v -19 34 -19
v -15 34 -19
v 15 34 -19
v 19 34 -19
v -19 34 -23
v -15 34 -23
v 15 34 -23
v 19 34 -23
v -20 34 -24
v -14 34 -24
v 14 34 -24
v 20 34 -24
v -19 35 11
v -15 35 11
v 15 35 11
v 19 35 11
v -19 35 9
v -15 35 9
v 15 35 9
v 19 35 9
v -19 35 -9
v -15 35 -9
v 15 35 -9
v 19 35 -9
v -19 35 -11
v -15 35 -11
v 15 35 -11
v 19 35 -11
v -19 36 23
v -15 36 23
v 15 36 23
v 19 36 23
v -19 36 19
v -15 36 19
v 15 36 19
v 19 36 19
v -19 36 -19
v -15 36 -19
v 15 36 -19
v 19 36 -19
v -19 36 -23
v -15 36 -23
v 15 36 -23
v 19 36 -23

# faces
f 5/4/1 2/4/1 1/4/1
f 5/7/1 3/7/1 2/7/1
f 6/4/1 4/4/1 3/4/1
f 6/7/1 3/7/1 5/7/1
f 7/4/1 5/4/1 1/4/1
f 8/4/1 5/4/1 7/4/1
f 9/4/1 4/4/1 6/4/1
f 10/4/1 4/4/1 9/4/1
f 11/3/1 8/3/1 7/3/1
f 12/3/1 8/3/1 11/3/1
f 13/3/1 10/3/1 9/3/1
f 14/3/1 10/3/1 13/3/1
f 19/3/1 16/3/1 15/3/1
f 20/3/1 16/3/1 19/3/1
f 21/3/1 18/3/1 17/3/1
f 22/3/1 18/3/1 21/3/1
f 27/3/1 24/3/1 23/3/1
f 28/3/1 24/3/1 27/3/1
f 29/3/1 26/3/1 25/3/1
f 30/3/1 26/3/1 29/3/1
f 35/3/1 32/3/1 31/3/1
f 36/3/1 32/3/1 35/3/1
f 37/3/1 34/3/1 33/3/1
f 38/3/1 34/3/1 37/3/1
f 43/3/1 40/3/1 39/3/1
f 44/3/1 40/3/1 43/3/1
f 45/3/1 42/3/1 41/3/1
f 46/3/1 42/3/1 45/3/1
f 51/9/1 48/9/1 47/9/1
f 52/9/1 48/9/1 51/9/1
f 53/9/1 50/9/1 49/9/1
f 54/9/1 50/9/1 53/9/1
f 62/5/1 56/5/1 55/5/1
f 63/5/1 58/5/1 57/5/1
f 67/5/1 62/5/1 61/5/1
f 67/5/1 56/5/1 62/5/1
f 68/5/1 56/5/1 67/5/1
f 69/5/1 64/5/1 63/5/1
f 69/5/1 63/5/1 57/5/1
f 70/5/1 64/5/1 69/5/1
f 71/3/1 60/3/1 59/3/1
f 72/3/1 60/3/1 71/3/1
f 73/3/1 66/3/1 65/3/1
f 74/3/1 66/3/1 73/3/1
f 79/5/1 67/5/1 61/5/1
f 80/5/1 67/5/1 79/5/1
f 81/5/1 64/5/1 70/5/1
f 82/5/1 64/5/1 81/5/1
f 87/11/1 76/11/1 75/11/1
f 88/11/1 76/11/1 87/11/1
f 89/11/1 78/11/1 77/11/1
f 90/11/1 78/11/1 89/11/1
f 91/5/1 84/5/1 83/5/1
f 92/5/1 84/5/1 91/5/1
f 93/5/1 86/5/1 85/5/1
f 94/5/1 86/5/1 93/5/1
f 105/5/1 96/5/1 95/5/1
f 106/9/1 97/9/1 96/9/1
f 106/5/1 96/5/1 105/5/1
f 107/5/1 98/5/1 97/5/1
f 107/9/1 97/9/1 106/9/1
f 108/5/1 98/5/1 107/5/1
f 109/5/1 100/5/1 99/5/1
f 110/5/1 100/5/1 109/5/1
f 111/5/1 102/5/1 101/5/1
f 112/9/1 103/9/1 102/9/1
f 112/5/1 102/5/1 111/5/1
f 113/5/1 104/5/1 103/5/1
f 113/9/1 103/9/1 112/9/1
f 114/5/1 104/5/1 113/5/1
f 115/9/1 107/9/1 106/9/1
f 116/9/1 107/9/1 115/9/1
f 117/9/1 113/9/1 112/9/1
f 118/9/1 113/9/1 117/9/1
f 125/9/1 120/9/1 119/9/1
f 126/9/1 120/9/1 125/9/1
f 127/11/1 122/11/1 121/11/1
f 128/11/1 122/11/1 127/11/1
f 129/9/1 124/9/1 123/9/1
f 130/9/1 124/9/1 129/9/1
f 135/10/1 132/10/1 131/10/1
f 136/10/1 132/10/1 135/10/1
f 137/10/1 134/10/1 133/10/1
f 138/10/1 134/10/1 137/10/1
f 151/10/1 140/10/1 139/10/1
f 152/10/1 140/10/1 151/10/1
f 153/10/1 142/10/1 141/10/1
f 154/10/1 142/10/1 153/10/1
f 155/10/1 144/10/1 143/10/1
f 156/10/1 144/10/1 155/10/1
f 157/10/1 146/10/1 145/10/1
f 158/10/1 146/10/1 157/10/1
f 159/10/1 148/10/1 147/10/1
f 160/10/1 148/10/1 159/10/1
f 161/10/1 150/10/1 149/10/1
f 162/10/1 150/10/1 161/10/1
f 167/10/1 164/10/1 163/10/1
f 168/10/1 164/10/1 167/10/1
f 169/10/1 166/10/1 165/10/1
f 170/10/1 166/10/1 169/10/1
f 179/10/1 172/10/1 171/10/1
f 180/10/1 172/10/1 179/10/1
f 181/10/1 174/10/1 173/10/1
f 182/10/1 174/10/1 181/10/1
f 183/10/1 176/10/1 175/10/1
f 184/10/1 176/10/1 183/10/1
f 185/10/1 178/10/1 177/10/1
f 186/10/1 178/10/1 185/10/1
f 191/10/1 188/10/1 187/10/1
f 192/10/1 188/10/1 191/10/1
f 193/10/1 190/10/1 189/10/1
f 194/10/1 190/10/1 193/10/1
f 199/10/1 196/10/1 195/10/1
f 200/10/1 196/10/1 199/10/1
f 201/10/1 198/10/1 197/10/1
f 202/10/1 198/10/1 201/10/1
f 211/10/1 204/10/1 203/10/1
f 212/10/1 204/10/1 211/10/1
f 213/10/1 206/10/1 205/10/1
f 214/10/1 206/10/1 213/10/1
f 215/10/1 208/10/1 207/10/1
f 216/10/1 208/10/1 215/10/1
f 217/10/1 210/10/1 209/10/1
f 218/10/1 210/10/1 217/10/1
f 223/10/1 220/10/1 219/10/1
f 224/10/1 220/10/1 223/10/1
f 225/10/1 222/10/1 221/10/1
f 226/10/1 222/10/1 225/10/1
f 231/10/1 228/10/1 227/10/1
f 232/10/1 228/10/1 231/10/1
f 233/10/1 230/10/1 229/10/1
f 234/10/1 230/10/1 233/10/1
f 239/10/1 236/10/1 235/10/1
f 240/10/1 236/10/1 239/10/1
f 241/10/1 238/10/1 237/10/1
f 242/10/1 238/10/1 241/10/1
f 251/10/1 244/10/1 243/10/1
f 252/10/1 244/10/1 251/10/1
f 253/10/1 246/10/1 245/10/1
f 254/10/1 246/10/1 253/10/1
f 255/10/1 248/10/1 247/10/1
f 256/10/1 248/10/1 255/10/1
f 257/10/1 250/10/1 249/10/1
f 258/10/1 250/10/1 257/10/1
f 267/10/1 260/10/1 259/10/1
f 268/10/1 260/10/1 267/10/1
f 269/10/1 262/10/1 261/10/1
f 270/10/1 262/10/1 269/10/1
f 271/10/1 264/10/1 263/10/1
f 272/10/1 264/10/1 271/10/1
f 273/10/1 266/10/1 265/10/1
f 274/10/1 266/10/1 273/10/1
f 279/10/1 276/10/1 275/10/1
f 280/10/1 276/10/1 279/10/1
f 281/10/1 278/10/1 277/10/1
f 282/10/1 278/10/1 281/10/1
f 287/10/1 284/10/1 283/10/1
f 288/10/1 284/10/1 287/10/1
f 289/10/1 286/10/1 285/10/1
f 290/10/1 286/10/1 289/10/1
f 303/10/1 292/10/1 291/10/1
f 304/10/1 292/10/1 303/10/1
f 305/10/1 294/10/1 293/10/1
f 306/10/1 294/10/1 305/10/1
f 307/10/1 296/10/1 295/10/1
f 308/10/1 296/10/1 307/10/1
f 309/10/1 298/10/1 297/10/1
f 310/10/1 298/10/1 309/10/1
f 311/10/1 300/10/1 299/10/1
f 312/10/1 300/10/1 311/10/1
f 313/10/1 302/10/1 301/10/1
f 314/10/1 302/10/1 313/10/1
f 319/9/1 316/9/1 315/9/1
f 320/9/1 316/9/1 319/9/1
f 321/9/1 318/9/1 317/9/1
f 322/9/1 318/9/1 321/9/1
f 329/3/1 324/3/1 323/3/1
f 330/3/1 324/3/1 329/3/1
f 331/6/1 325/6/1 324/6/1
f 331/3/1 324/3/1 330/3/1
f 332/6/1 325/6/1 331/6/1
f 333/6/1 327/6/1 326/6/1
f 334/3/1 328/3/1 327/3/1
f 334/6/1 327/6/1 333/6/1
f 335/3/1 328/3/1 334/3/1
f 336/3/1 328/3/1 335/3/1
f 337/5/1 331/5/1 330/5/1
f 340/5/1 335/5/1 334/5/1
f 345/5/1 338/5/1 337/5/1
f 345/5/1 337/5/1 330/5/1
f 346/5/1 338/5/1 345/5/1
f 347/5/1 340/5/1 339/5/1
f 348/5/1 335/5/1 340/5/1
f 348/5/1 340/5/1 347/5/1
f 353/11/1 342/11/1 341/11/1
f 354/11/1 342/11/1 353/11/1
f 355/11/1 344/11/1 343/11/1
f 356/11/1 344/11/1 355/11/1
f 357/5/1 350/5/1 349/5/1
f 358/5/1 350/5/1 357/5/1
f 359/5/1 352/5/1 351/5/1
f 360/5/1 352/5/1 359/5/1
f 365/9/1 362/9/1 361/9/1
f 366/9/1 362/9/1 365/9/1
f 367/9/1 364/9/1 363/9/1
f 368/9/1 364/9/1 367/9/1
f 369/9/1 366/9/1 365/9/1
f 370/9/1 366/9/1 369/9/1
f 371/9/1 368/9/1 367/9/1
f 372/9/1 368/9/1 371/9/1
f 379/9/1 374/9/1 373/9/1
f 380/9/1 374/9/1 379/9/1
f 381/11/1 376/11/1 375/11/1
f 382/11/1 376/11/1 381/11/1
f 383/9/1 378/9/1 377/9/1
f 384/9/1 378/9/1 383/9/1
f 389/3/1 386/3/1 385/3/1
f 390/3/1 386/3/1 389/3/1
f 391/3/1 388/3/1 387/3/1
f 392/3/1 388/3/1 391/3/1
f 397/3/1 394/3/1 393/3/1
f 398/3/1 394/3/1 397/3/1
f 399/3/1 396/3/1 395/3/1
f 400/3/1 396/3/1 399/3/1
f 405/3/1 402/3/1 401/3/1
f 406/3/1 402/3/1 405/3/1
f 407/3/1 404/3/1 403/3/1
f 408/3/1 404/3/1 407/3/1
f 413/3/1 410/3/1 409/3/1
f 414/3/1 410/3/1 413/3/1
f 415/3/1 412/3/1 411/3/1
f 416/3/1 412/3/1 415/3/1
f 421/3/1 418/3/1 417/3/1
f 422/3/1 418/3/1 421/3/1
f 423/3/1 420/3/1 419/3/1
f 424/3/1 420/3/1 423/3/1
f 425/3/2 426/3/2 429/3/2
f 429/3/2 426/3/2 430/3/2
f 427/3/2 428/3/2 431/3/2
f 431/3/2 428/3/2 432/3/2
f 433/3/2 434/3/2 437/3/2
f 437/3/2 434/3/2 438/3/2
f 435/3/2 436/3/2 439/3/2
f 439/3/2 436/3/2 440/3/2
f 441/3/2 442/3/2 445/3/2
f 445/3/2 442/3/2 446/3/2
f 443/3/2 444/3/2 447/3/2
f 447/3/2 444/3/2 448/3/2
f 449/3/2 450/3/2 453/3/2
f 453/3/2 450/3/2 454/3/2
f 451/3/2 452/3/2 455/3/2
f 455/3/2 452/3/2 456/3/2
f 457/3/2 458/3/2 461/3/2
f 461/3/2 458/3/2 462/3/2
f 459/3/2 460/3/2 463/3/2
f 463/3/2 460/3/2 464/3/2
f 465/9/2 466/9/2 469/9/2
f 469/9/2 466/9/2 470/9/2
f 467/9/2 468/9/2 471/9/2
f 471/9/2 468/9/2 472/9/2
f 469/9/2 470/9/2 473/9/2
f 473/9/2 470/9/2 474/9/2
f 471/9/2 472/9/2 475/9/2
f 475/9/2 472/9/2 476/9/2
f 477/9/2 478/9/2 483/9/2
f 483/9/2 478/9/2 484/9/2
f 479/11/2 480/11/2 485/11/2
f 485/11/2 480/11/2 486/11/2
f 481/9/2 482/9/2 487/9/2
f 487/9/2 482/9/2 488/9/2
f 489/3/2 490/3/2 495/3/2
f 495/3/2 490/3/2 496/3/2
f 490/6/2 491/6/2 497/6/2
f 496/3/2 490/3/2 497/3/2
f 497/6/2 491/6/2 498/6/2
f 492/6/2 493/6/2 499/6/2
f 493/3/2 494/3/2 500/3/2
f 499/6/2 493/6/2 500/6/2
f 500/3/2 494/3/2 501/3/2
f 501/3/2 494/3/2 502/3/2
f 496/5/2 497/5/2 503/5/2
f 500/5/2 501/5/2 506/5/2
f 503/5/2 504/5/2 511/5/2
f 496/5/2 503/5/2 511/5/2
f 511/5/2 504/5/2 512/5/2
f 505/5/2 506/5/2 513/5/2
f 506/5/2 501/5/2 514/5/2
f 513/5/2 506/5/2 514/5/2
f 507/11/2 508/11/2 519/11/2
f 519/11/2 508/11/2 520/11/2
f 509/11/2 510/11/2 521/11/2
f 521/11/2 510/11/2 522/11/2
f 515/5/2 516/5/2 523/5/2
f 523/5/2 516/5/2 524/5/2
f 517/5/2 518/5/2 525/5/2
f 525/5/2 518/5/2 526/5/2
f 527/9/2 528/9/2 531/9/2
f 531/9/2 528/9/2 532/9/2
f 529/9/2 530/9/2 533/9/2
f 533/9/2 530/9/2 534/9/2
f 535/10/2 536/10/2 547/10/2
f 547/10/2 536/10/2 548/10/2
f 537/10/2 538/10/2 549/10/2
f 549/10/2 538/10/2 550/10/2
f 539/10/2 540/10/2 551/10/2
f 551/10/2 540/10/2 552/10/2
f 541/10/2 542/10/2 553/10/2
f 553/10/2 542/10/2 554/10/2
f 543/10/2 544/10/2 555/10/2
f 555/10/2 544/10/2 556/10/2
f 545/10/2 546/10/2 557/10/2
f 557/10/2 546/10/2 558/10/2
f 559/10/2 560/10/2 563/10/2
f 563/10/2 560/10/2 564/10/2
f 561/10/2 562/10/2 565/10/2
f 565/10/2 562/10/2 566/10/2
f 567/10/2 568/10/2 571/10/2
f 571/10/2 568/10/2 572/10/2
f 569/10/2 570/10/2 573/10/2
f 573/10/2 570/10/2 574/10/2
f 575/10/2 576/10/2 583/10/2
f 583/10/2 576/10/2 584/10/2
f 577/10/2 578/10/2 585/10/2
f 585/10/2 578/10/2 586/10/2
f 579/10/2 580/10/2 587/10/2
f 587/10/2 580/10/2 588/10/2
f 581/10/2 582/10/2 589/10/2
f 589/10/2 582/10/2 590/10/2
f 591/10/2 592/10/2 599/10/2
f 599/10/2 592/10/2 600/10/2
f 593/10/2 594/10/2 601/10/2
f 601/10/2 594/10/2 602/10/2
f 595/10/2 596/10/2 603/10/2
f 603/10/2 596/10/2 604/10/2
f 597/10/2 598/10/2 605/10/2
f 605/10/2 598/10/2 606/10/2
f 607/10/2 608/10/2 611/10/2
f 611/10/2 608/10/2 612/10/2
f 609/10/2 610/10/2 613/10/2
f 613/10/2 610/10/2 614/10/2
f 615/10/2 616/10/2 619/10/2
f 619/10/2 616/10/2 620/10/2
f 617/10/2 618/10/2 621/10/2
f 621/10/2 618/10/2 622/10/2
f 623/10/2 624/10/2 627/10/2
f 627/10/2 624/10/2 628/10/2
f 625/10/2 626/10/2 629/10/2
f 629/10/2 626/10/2 630/10/2
f 631/10/2 632/10/2 639/10/2
f 639/10/2 632/10/2 640/10/2
f 633/10/2 634/10/2 641/10/2
f 641/10/2 634/10/2 642/10/2
f 635/10/2 636/10/2 643/10/2
f 643/10/2 636/10/2 644/10/2
f 637/10/2 638/10/2 645/10/2
f 645/10/2 638/10/2 646/10/2
f 647/10/2 648/10/2 651/10/2
f 651/10/2 648/10/2 652/10/2
f 649/10/2 650/10/2 653/10/2
f 653/10/2 650/10/2 654/10/2
f 655/10/2 656/10/2 659/10/2
f 659/10/2 656/10/2 660/10/2
f 657/10/2 658/10/2 661/10/2
f 661/10/2 658/10/2 662/10/2
f 663/10/2 664/10/2 671/10/2
f 671/10/2 664/10/2 672/10/2
f 665/10/2 666/10/2 673/10/2
f 673/10/2 666/10/2 674/10/2
f 667/10/2 668/10/2 675/10/2
f 675/10/2 668/10/2 676/10/2
f 669/10/2 670/10/2 677/10/2
f 677/10/2 670/10/2 678/10/2
f 679/10/2 680/10/2 683/10/2
f 683/10/2 680/10/2 684/10/2
f 681/10/2 682/10/2 685/10/2
f 685/10/2 682/10/2 686/10/2
f 687/10/2 688/10/2 699/10/2
f 699/10/2 688/10/2 700/10/2
f 689/10/2 690/10/2 701/10/2
f 701/10/2 690/10/2 702/10/2
f 691/10/2 692/10/2 703/10/2
f 703/10/2 692/10/2 704/10/2
f 693/10/2 694/10/2 705/10/2
f 705/10/2 694/10/2 706/10/2
f 695/10/2 696/10/2 707/10/2
f 707/10/2 696/10/2 708/10/2
f 697/10/2 698/10/2 709/10/2
f 709/10/2 698/10/2 710/10/2
f 711/10/2 712/10/2 715/10/2
f 715/10/2 712/10/2 716/10/2
f 713/10/2 714/10/2 717/10/2
f 717/10/2 714/10/2 718/10/2
f 719/5/2 720/5/2 729/5/2
f 720/9/2 721/9/2 730/9/2
f 729/5/2 720/5/2 730/5/2
f 721/5/2 722/5/2 731/5/2
f 730/9/2 721/9/2 731/9/2
f 731/5/2 722/5/2 732/5/2
f 723/5/2 724/5/2 733/5/2
f 733/5/2 724/5/2 734/5/2
f 725/5/2 726/5/2 735/5/2
f 726/9/2 727/9/2 736/9/2
f 735/5/2 726/5/2 736/5/2
f 727/5/2 728/5/2 737/5/2
f 736/9/2 727/9/2 737/9/2
f 737/5/2 728/5/2 738/5/2
f 730/9/2 731/9/2 739/9/2
f 739/9/2 731/9/2 740/9/2
f 736/9/2 737/9/2 741/9/2
f 741/9/2 737/9/2 742/9/2
f 743/9/2 744/9/2 749/9/2
f 749/9/2 744/9/2 750/9/2
f 745/11/2 746/11/2 751/11/2
f 751/11/2 746/11/2 752/11/2
f 747/9/2 748/9/2 753/9/2
f 753/9/2 748/9/2 754/9/2
f 755/5/2 756/5/2 762/5/2
f 757/5/2 758/5/2 763/5/2
f 761/5/2 762/5/2 767/5/2
f 762/5/2 756/5/2 767/5/2
f 767/5/2 756/5/2 768/5/2
f 763/5/2 764/5/2 769/5/2
f 757/5/2 763/5/2 769/5/2
f 769/5/2 764/5/2 770/5/2
f 759/3/2 760/3/2 771/3/2
f 771/3/2 760/3/2 772/3/2
f 765/3/2 766/3/2 773/3/2
f 773/3/2 766/3/2 774/3/2
f 761/5/2 767/5/2 779/5/2
f 779/5/2 767/5/2 780/5/2
f 770/5/2 764/5/2 781/5/2
f 781/5/2 764/5/2 782/5/2
f 775/11/2 776/11/2 787/11/2
f 787/11/2 776/11/2 788/11/2
f 777/11/2 778/11/2 789/11/2
f 789/11/2 778/11/2 790/11/2
f 783/5/2 784/5/2 791/5/2
f 791/5/2 784/5/2 792/5/2
f 785/5/2 786/5/2 793/5/2
f 793/5/2 786/5/2 794/5/2
f 795/9/2 796/9/2 799/9/2
f 799/9/2 796/9/2 800/9/2
f 797/9/2 798/9/2 801/9/2
f 801/9/2 798/9/2 802/9/2
f 803/3/2 804/3/2 807/3/2
f 807/3/2 804/3/2 808/3/2
f 805/3/2 806/3/2 809/3/2
f 809/3/2 806/3/2 810/3/2
f 811/3/2 812/3/2 815/3/2
f 815/3/2 812/3/2 816/3/2
f 813/3/2 814/3/2 817/3/2
f 817/3/2 814/3/2 818/3/2
f 819/3/2 820/3/2 823/3/2
f 823/3/2 820/3/2 824/3/2
f 821/3/2 822/3/2 825/3/2
f 825/3/2 822/3/2 826/3/2
f 827/3/2 828/3/2 831/3/2
f 831/3/2 828/3/2 832/3/2
f 829/3/2 830/3/2 833/3/2
f 833/3/2 830/3/2 834/3/2
f 835/4/2 836/4/2 839/4/2
f 836/7/2 837/7/2 839/7/2
f 837/4/2 838/4/2 840/4/2
f 839/7/2 837/7/2 840/7/2
f 835/4/2 839/4/2 841/4/2
f 841/4/2 839/4/2 842/4/2
f 840/4/2 838/4/2 843/4/2
f 843/4/2 838/4/2 844/4/2
f 841/3/2 842/3/2 845/3/2
f 845/3/2 842/3/2 846/3/2
f 843/3/2 844/3/2 847/3/2
f 847/3/2 844/3/2 848/3/2
f 852/4/3 850/4/3 849/4/3
f 852/3/3 851/3/3 850/3/3
f 853/3/3 851/3/3 852/3/3
f 854/3/3 851/3/3 853/3/3
f 855/4/3 852/4/3 849/4/3
f 855/1/3 853/1/3 852/1/3
f 856/1/3 853/1/3 855/1/3
f 858/4/3 855/4/3 849/4/3
f 859/3/3 857/3/3 856/3/3
f 859/4/3 855/4/3 858/4/3
f 859/3/3 856/3/3 855/3/3
f 860/3/3 857/3/3 859/3/3
f 863/10/3 862/10/3 861/10/3
f 864/10/3 862/10/3 863/10/3
f 867/10/3 866/10/3 865/10/3
f 868/10/3 866/10/3 867/10/3
f 871/10/3 870/10/3 869/10/3
f 872/10/3 870/10/3 871/10/3
f 875/10/3 874/10/3 873/10/3
f 876/10/3 874/10/3 875/10/3
f 879/10/3 878/10/3 877/10/3
f 880/10/3 878/10/3 879/10/3
f 883/3/3 882/3/3 881/3/3
f 884/3/3 882/3/3 883/3/3
f 887/3/3 886/3/3 885/3/3
f 888/3/3 886/3/3 887/3/3
f 891/10/3 890/10/3 889/10/3
f 892/10/3 890/10/3 891/10/3
f 895/10/3 894/10/3 893/10/3
f 896/10/3 894/10/3 895/10/3
f 899/10/3 898/10/3 897/10/3
f 900/10/3 898/10/3 899/10/3
f 903/10/3 902/10/3 901/10/3
f 904/10/3 902/10/3 903/10/3
f 907/3/3 906/3/3 905/3/3
f 908/3/3 906/3/3 907/3/3
f 911/3/3 910/3/3 909/3/3
f 912/3/3 910/3/3 911/3/3
f 915/10/3 914/10/3 913/10/3
f 916/10/3 914/10/3 915/10/3
f 919/10/3 918/10/3 917/10/3
f 920/10/3 918/10/3 919/10/3
f 923/10/3 922/10/3 921/10/3
f 924/10/3 922/10/3 923/10/3
f 927/10/3 926/10/3 925/10/3
f 928/10/3 926/10/3 927/10/3
f 931/10/3 930/10/3 929/10/3
f 932/10/3 930/10/3 931/10/3
f 935/10/3 934/10/3 933/10/3
f 936/10/3 934/10/3 935/10/3
f 939/10/3 938/10/3 937/10/3
f 940/10/3 938/10/3 939/10/3
f 943/3/3 942/3/3 941/3/3
f 944/3/3 942/3/3 943/3/3
f 947/3/3 946/3/3 945/3/3
f 948/3/3 946/3/3 947/3/3
f 951/3/3 950/3/3 949/3/3
f 952/3/3 950/3/3 951/3/3
f 955/3/3 954/3/3 953/3/3
f 956/3/3 954/3/3 955/3/3
f 959/10/3 958/10/3 957/10/3
f 960/10/3 958/10/3 959/10/3
f 963/10/3 962/10/3 961/10/3
f 964/10/3 962/10/3 963/10/3
f 967/10/3 966/10/3 965/10/3
f 968/10/3 966/10/3 967/10/3
f 971/10/3 970/10/3 969/10/3
f 972/10/3 970/10/3 971/10/3
f 975/10/3 974/10/3 973/10/3
f 976/10/3 974/10/3 975/10/3
f 979/10/3 978/10/3 977/10/3
f 980/10/3 978/10/3 979/10/3
f 983/10/3 982/10/3 981/10/3
f 984/10/3 982/10/3 983/10/3
f 987/9/3 986/9/3 985/9/3
f 988/9/3 986/9/3 987/9/3
f 991/9/3 990/9/3 989/9/3
f 992/9/3 990/9/3 991/9/3
f 995/3/3 994/3/3 993/3/3
f 996/3/3 994/3/3 995/3/3
f 1001/5/3 998/5/3 997/5/3
f 1002/5/3 998/5/3 1001/5/3
f 1003/5/3 1000/5/3 999/5/3
f 1004/5/3 1000/5/3 1003/5/3
f 1009/5/3 1006/5/3 1005/5/3
f 1010/5/3 1006/5/3 1009/5/3
f 1011/5/3 1008/5/3 1007/5/3
f 1012/5/3 1008/5/3 1011/5/3
f 1015/3/3 1014/3/3 1013/3/3
f 1016/3/3 1014/3/3 1015/3/3
f 1019/5/3 1018/5/3 1017/5/3
f 1020/5/3 1018/5/3 1019/5/3
f 1023/5/3 1022/5/3 1021/5/3
f 1024/5/3 1022/5/3 1023/5/3
f 1027/5/3 1026/5/3 1025/5/3
f 1028/5/3 1026/5/3 1027/5/3
f 1032/11/3 1030/11/3 1029/11/3
f 1033/11/3 1030/11/3 1032/11/3
f 1034/11/3 1030/11/3 1033/11/3
f 1035/9/3 1032/9/3 1031/9/3
f 1035/9/3 1033/9/3 1032/9/3
f 1036/9/3 1033/9/3 1035/9/3
f 1037/9/3 1033/9/3 1036/9/3
f 1038/11/3 1030/11/3 1034/11/3
f 1039/11/3 1037/11/3 1036/11/3
f 1039/11/3 1038/11/3 1037/11/3
f 1040/11/3 1030/11/3 1038/11/3
f 1040/11/3 1038/11/3 1039/11/3
f 1044/11/3 1042/11/3 1041/11/3
f 1045/11/3 1042/11/3 1044/11/3
f 1046/11/3 1042/11/3 1045/11/3
f 1047/9/3 1044/9/3 1043/9/3
f 1047/9/3 1045/9/3 1044/9/3
f 1048/9/3 1045/9/3 1047/9/3
f 1049/9/3 1045/9/3 1048/9/3
f 1050/11/3 1042/11/3 1046/11/3
f 1051/11/3 1049/11/3 1048/11/3
f 1051/11/3 1050/11/3 1049/11/3
f 1052/11/3 1042/11/3 1050/11/3
f 1052/11/3 1050/11/3 1051/11/3
f 1055/5/3 1054/5/3 1053/5/3
f 1056/5/3 1054/5/3 1055/5/3
f 1059/5/3 1058/5/3 1057/5/3
f 1060/5/3 1058/5/3 1059/5/3
f 1063/5/3 1062/5/3 1061/5/3
f 1064/5/3 1062/5/3 1063/5/3
f 1068/11/3 1066/11/3 1065/11/3
f 1069/11/3 1066/11/3 1068/11/3
f 1070/11/3 1066/11/3 1069/11/3
f 1071/9/3 1068/9/3 1067/9/3
f 1071/9/3 1069/9/3 1068/9/3
f 1072/9/3 1069/9/3 1071/9/3
f 1073/9/3 1069/9/3 1072/9/3
f 1074/11/3 1066/11/3 1070/11/3
f 1075/11/3 1073/11/3 1072/11/3
f 1075/11/3 1074/11/3 1073/11/3
f 1076/11/3 1066/11/3 1074/11/3
f 1076/11/3 1074/11/3 1075/11/3
f 1080/11/3 1078/11/3 1077/11/3
f 1081/11/3 1078/11/3 1080/11/3
f 1082/11/3 1078/11/3 1081/11/3
f 1083/9/3 1080/9/3 1079/9/3
f 1083/9/3 1081/9/3 1080/9/3
f 1084/9/3 1081/9/3 1083/9/3
f 1085/9/3 1081/9/3 1084/9/3
f 1086/11/3 1078/11/3 1082/11/3
f 1087/11/3 1085/11/3 1084/11/3
f 1087/11/3 1086/11/3 1085/11/3
f 1088/11/3 1078/11/3 1086/11/3
f 1088/11/3 1086/11/3 1087/11/3
f 1091/5/3 1090/5/3 1089/5/3
f 1092/5/3 1090/5/3 1091/5/3
f 1095/5/3 1094/5/3 1093/5/3
f 1096/5/3 1094/5/3 1095/5/3
f 1099/9/3 1098/9/3 1097/9/3
f 1100/9/3 1098/9/3 1099/9/3
f 1103/9/3 1102/9/3 1101/9/3
f 1104/9/3 1102/9/3 1103/9/3
f 1107/9/3 1106/9/3 1105/9/3
f 1108/9/3 1106/9/3 1107/9/3
f 1111/9/3 1110/9/3 1109/9/3
f 1112/9/3 1110/9/3 1111/9/3
f 1116/3/3 1115/3/3 1114/3/3
f 1117/3/3 1115/3/3 1116/3/3
f 1122/4/3 1114/4/3 1113/4/3
f 1122/3/3 1116/3/3 1114/3/3
f 1123/3/3 1116/3/3 1122/3/3
f 1124/5/3 1119/5/3 1118/5/3
f 1125/5/3 1119/5/3 1124/5/3
f 1126/5/3 1121/5/3 1120/5/3
f 1127/5/3 1121/5/3 1126/5/3
f 1128/1/3 1123/1/3 1122/1/3
f 1128/4/3 1122/4/3 1113/4/3
f 1129/1/3 1123/1/3 1128/1/3
f 1134/3/3 1129/3/3 1128/3/3
f 1136/5/3 1131/5/3 1130/5/3
f 1137/5/3 1131/5/3 1136/5/3
f 1138/5/3 1133/5/3 1132/5/3
f 1139/5/3 1133/5/3 1138/5/3
f 1140/4/3 1128/4/3 1113/4/3
f 1141/3/3 1135/3/3 1134/3/3
f 1141/4/3 1128/4/3 1140/4/3
f 1141/3/3 1134/3/3 1128/3/3
f 1142/3/3 1135/3/3 1141/3/3
f 1145/10/3 1144/10/3 1143/10/3
f 1146/10/3 1144/10/3 1145/10/3
f 1149/10/3 1148/10/3 1147/10/3
f 1150/10/3 1148/10/3 1149/10/3
f 1153/10/3 1152/10/3 1151/10/3
f 1154/10/3 1152/10/3 1153/10/3
f 1157/3/3 1156/3/3 1155/3/3
f 1158/3/3 1156/3/3 1157/3/3
f 1161/3/3 1160/3/3 1159/3/3
f 1162/3/3 1160/3/3 1161/3/3
f 1165/10/3 1164/10/3 1163/10/3
f 1166/10/3 1164/10/3 1165/10/3
f 1169/10/3 1168/10/3 1167/10/3
f 1170/10/3 1168/10/3 1169/10/3
f 1173/10/3 1172/10/3 1171/10/3
f 1174/10/3 1172/10/3 1173/10/3
f 1177/10/3 1176/10/3 1175/10/3
f 1178/10/3 1176/10/3 1177/10/3
f 1181/10/3 1180/10/3 1179/10/3
f 1182/10/3 1180/10/3 1181/10/3
f 1185/10/3 1184/10/3 1183/10/3
f 1186/10/3 1184/10/3 1185/10/3
f 1189/3/3 1188/3/3 1187/3/3
f 1190/3/3 1188/3/3 1189/3/3
f 1193/3/3 1192/3/3 1191/3/3
f 1194/3/3 1192/3/3 1193/3/3
f 1197/10/3 1196/10/3 1195/10/3
f 1198/10/3 1196/10/3 1197/10/3
f 1201/3/3 1200/3/3 1199/3/3
f 1202/3/3 1200/3/3 1201/3/3
f 1205/3/3 1204/3/3 1203/3/3
f 1206/3/3 1204/3/3 1205/3/3
f 1209/10/3 1208/10/3 1207/10/3
f 1210/10/3 1208/10/3 1209/10/3
f 1213/10/3 1212/10/3 1211/10/3
f 1214/10/3 1212/10/3 1213/10/3
f 1217/10/3 1216/10/3 1215/10/3
f 1218/10/3 1216/10/3 1217/10/3
f 1221/10/3 1220/10/3 1219/10/3
f 1222/10/3 1220/10/3 1221/10/3
f 1225/3/3 1224/3/3 1223/3/3
f 1226/3/3 1224/3/3 1225/3/3
f 1229/10/3 1228/10/3 1227/10/3
f 1230/10/3 1228/10/3 1229/10/3
f 1233/10/3 1232/10/3 1231/10/3
f 1234/10/3 1232/10/3 1233/10/3
f 1237/3/3 1236/3/3 1235/3/3
f 1238/3/3 1236/3/3 1237/3/3
f 1241/10/3 1240/10/3 1239/10/3
f 1242/10/3 1240/10/3 1241/10/3
f 1245/10/3 1244/10/3 1243/10/3
f 1246/10/3 1244/10/3 1245/10/3
f 1249/10/3 1248/10/3 1247/10/3
f 1250/10/3 1248/10/3 1249/10/3
f 1253/3/3 1252/3/3 1251/3/3
f 1254/3/3 1252/3/3 1253/3/3
f 1257/10/3 1256/10/3 1255/10/3
f 1258/10/3 1256/10/3 1257/10/3
f 1261/10/3 1260/10/3 1259/10/3
f 1262/10/3 1260/10/3 1261/10/3
f 1265/3/3 1264/3/3 1263/3/3
f 1266/3/3 1264/3/3 1265/3/3
f 1269/10/3 1268/10/3 1267/10/3
f 1270/10/3 1268/10/3 1269/10/3
f 1273/10/3 1272/10/3 1271/10/3
f 1274/10/3 1272/10/3 1273/10/3
f 1275/10/4 1276/10/4 1277/10/4
f 1277/10/4 1276/10/4 1278/10/4
f 1279/10/4 1280/10/4 1281/10/4
f 1281/10/4 1280/10/4 1282/10/4
f 1283/3/4 1284/3/4 1285/3/4
f 1285/3/4 1284/3/4 1286/3/4
f 1287/10/4 1288/10/4 1289/10/4
f 1289/10/4 1288/10/4 1290/10/4
f 1291/10/4 1292/10/4 1293/10/4
f 1293/10/4 1292/10/4 1294/10/4
f 1295/3/4 1296/3/4 1297/3/4
f 1297/3/4 1296/3/4 1298/3/4
f 1299/10/4 1300/10/4 1301/10/4
f 1301/10/4 1300/10/4 1302/10/4
f 1303/10/4 1304/10/4 1305/10/4
f 1305/10/4 1304/10/4 1306/10/4
f 1307/10/4 1308/10/4 1309/10/4
f 1309/10/4 1308/10/4 1310/10/4
f 1311/3/4 1312/3/4 1313/3/4
f 1313/3/4 1312/3/4 1314/3/4
f 1315/10/4 1316/10/4 1317/10/4
f 1317/10/4 1316/10/4 1318/10/4
f 1319/10/4 1320/10/4 1321/10/4
f 1321/10/4 1320/10/4 1322/10/4
f 1323/3/4 1324/3/4 1325/3/4
f 1325/3/4 1324/3/4 1326/3/4
f 1327/10/4 1328/10/4 1329/10/4
f 1329/10/4 1328/10/4 1330/10/4
f 1331/10/4 1332/10/4 1333/10/4
f 1333/10/4 1332/10/4 1334/10/4
f 1335/10/4 1336/10/4 1337/10/4
f 1337/10/4 1336/10/4 1338/10/4
f 1339/10/4 1340/10/4 1341/10/4
f 1341/10/4 1340/10/4 1342/10/4
f 1343/3/4 1344/3/4 1345/3/4
f 1345/3/4 1344/3/4 1346/3/4
f 1347/3/4 1348/3/4 1349/3/4
f 1349/3/4 1348/3/4 1350/3/4
f 1351/10/4 1352/10/4 1353/10/4
f 1353/10/4 1352/10/4 1354/10/4
f 1355/3/4 1356/3/4 1357/3/4
f 1357/3/4 1356/3/4 1358/3/4
f 1359/3/4 1360/3/4 1361/3/4
f 1361/3/4 1360/3/4 1362/3/4
f 1363/10/4 1364/10/4 1365/10/4
f 1365/10/4 1364/10/4 1366/10/4
f 1367/10/4 1368/10/4 1369/10/4
f 1369/10/4 1368/10/4 1370/10/4
f 1371/10/4 1372/10/4 1373/10/4
f 1373/10/4 1372/10/4 1374/10/4
f 1375/10/4 1376/10/4 1377/10/4
f 1377/10/4 1376/10/4 1378/10/4
f 1379/10/4 1380/10/4 1381/10/4
f 1381/10/4 1380/10/4 1382/10/4
f 1383/10/4 1384/10/4 1385/10/4
f 1385/10/4 1384/10/4 1386/10/4
f 1387/3/4 1388/3/4 1389/3/4
f 1389/3/4 1388/3/4 1390/3/4
f 1391/3/4 1392/3/4 1393/3/4
f 1393/3/4 1392/3/4 1394/3/4
f 1395/10/4 1396/10/4 1397/10/4
f 1397/10/4 1396/10/4 1398/10/4
f 1399/10/4 1400/10/4 1401/10/4
f 1401/10/4 1400/10/4 1402/10/4
f 1403/10/4 1404/10/4 1405/10/4
f 1405/10/4 1404/10/4 1406/10/4
f 1408/3/4 1409/3/4 1410/3/4
f 1410/3/4 1409/3/4 1411/3/4
f 1407/4/4 1408/4/4 1416/4/4
f 1408/3/4 1410/3/4 1416/3/4
f 1416/3/4 1410/3/4 1417/3/4
f 1412/5/4 1413/5/4 1418/5/4
f 1418/5/4 1413/5/4 1419/5/4
f 1414/5/4 1415/5/4 1420/5/4
f 1420/5/4 1415/5/4 1421/5/4
f 1416/1/4 1417/1/4 1422/1/4
f 1407/4/4 1416/4/4 1422/4/4
f 1422/1/4 1417/1/4 1423/1/4
f 1422/3/4 1423/3/4 1428/3/4
f 1424/5/4 1425/5/4 1430/5/4
f 1430/5/4 1425/5/4 1431/5/4
f 1426/5/4 1427/5/4 1432/5/4
f 1432/5/4 1427/5/4 1433/5/4
f 1407/4/4 1422/4/4 1434/4/4
f 1428/3/4 1429/3/4 1435/3/4
f 1434/4/4 1422/4/4 1435/4/4
f 1422/3/4 1428/3/4 1435/3/4
f 1435/3/4 1429/3/4 1436/3/4
f 1437/9/4 1438/9/4 1439/9/4
f 1439/9/4 1438/9/4 1440/9/4
f 1441/9/4 1442/9/4 1443/9/4
f 1443/9/4 1442/9/4 1444/9/4
f 1445/9/4 1446/9/4 1447/9/4
f 1447/9/4 1446/9/4 1448/9/4
f 1449/9/4 1450/9/4 1451/9/4
f 1451/9/4 1450/9/4 1452/9/4
f 1453/5/4 1454/5/4 1455/5/4
f 1455/5/4 1454/5/4 1456/5/4
f 1457/5/4 1458/5/4 1459/5/4
f 1459/5/4 1458/5/4 1460/5/4
f 1461/11/4 1462/11/4 1464/11/4
f 1464/11/4 1462/11/4 1465/11/4
f 1465/11/4 1462/11/4 1466/11/4
f 1463/9/4 1464/9/4 1467/9/4
f 1464/9/4 1465/9/4 1467/9/4
f 1467/9/4 1465/9/4 1468/9/4
f 1468/9/4 1465/9/4 1469/9/4
f 1466/11/4 1462/11/4 1470/11/4
f 1468/11/4 1469/11/4 1471/11/4
f 1469/11/4 1470/11/4 1471/11/4
f 1470/11/4 1462/11/4 1472/11/4
f 1471/11/4 1470/11/4 1472/11/4
f 1473/11/4 1474/11/4 1476/11/4
f 1476/11/4 1474/11/4 1477/11/4
f 1477/11/4 1474/11/4 1478/11/4
f 1475/9/4 1476/9/4 1479/9/4
f 1476/9/4 1477/9/4 1479/9/4
f 1479/9/4 1477/9/4 1480/9/4
f 1480/9/4 1477/9/4 1481/9/4
f 1478/11/4 1474/11/4 1482/11/4
f 1480/11/4 1481/11/4 1483/11/4
f 1481/11/4 1482/11/4 1483/11/4
f 1482/11/4 1474/11/4 1484/11/4
f 1483/11/4 1482/11/4 1484/11/4
f 1485/5/4 1486/5/4 1487/5/4
f 1487/5/4 1486/5/4 1488/5/4
f 1489/5/4 1490/5/4 1491/5/4
f 1491/5/4 1490/5/4 1492/5/4
f 1493/5/4 1494/5/4 1495/5/4
f 1495/5/4 1494/5/4 1496/5/4
f 1497/11/4 1498/11/4 1500/11/4
f 1500/11/4 1498/11/4 1501/11/4
f 1501/11/4 1498/11/4 1502/11/4
f 1499/9/4 1500/9/4 1503/9/4
f 1500/9/4 1501/9/4 1503/9/4
f 1503/9/4 1501/9/4 1504/9/4
f 1504/9/4 1501/9/4 1505/9/4
f 1502/11/4 1498/11/4 1506/11/4
f 1504/11/4 1505/11/4 1507/11/4
f 1505/11/4 1506/11/4 1507/11/4
f 1506/11/4 1498/11/4 1508/11/4
f 1507/11/4 1506/11/4 1508/11/4
f 1509/11/4 1510/11/4 1512/11/4
f 1512/11/4 1510/11/4 1513/11/4
f 1513/11/4 1510/11/4 1514/11/4
f 1511/9/4 1512/9/4 1515/9/4
f 1512/9/4 1513/9/4 1515/9/4
f 1515/9/4 1513/9/4 1516/9/4
f 1516/9/4 1513/9/4 1517/9/4
f 1514/11/4 1510/11/4 1518/11/4
f 1516/11/4 1517/11/4 1519/11/4
f 1517/11/4 1518/11/4 1519/11/4
f 1518/11/4 1510/11/4 1520/11/4
f 1519/11/4 1518/11/4 1520/11/4
f 1521/5/4 1522/5/4 1523/5/4
f 1523/5/4 1522/5/4 1524/5/4
f 1525/5/4 1526/5/4 1527/5/4
f 1527/5/4 1526/5/4 1528/5/4
f 1529/5/4 1530/5/4 1531/5/4
f 1531/5/4 1530/5/4 1532/5/4
f 1533/3/4 1534/3/4 1535/3/4
f 1535/3/4 1534/3/4 1536/3/4
f 1537/5/4 1538/5/4 1541/5/4
f 1541/5/4 1538/5/4 1542/5/4
f 1539/5/4 1540/5/4 1543/5/4
f 1543/5/4 1540/5/4 1544/5/4
f 1545/5/4 1546/5/4 1549/5/4
f 1549/5/4 1546/5/4 1550/5/4
f 1547/5/4 1548/5/4 1551/5/4
f 1551/5/4 1548/5/4 1552/5/4
f 1553/3/4 1554/3/4 1555/3/4
f 1555/3/4 1554/3/4 1556/3/4
f 1557/9/4 1558/9/4 1559/9/4
f 1559/9/4 1558/9/4 1560/9/4
f 1561/9/4 1562/9/4 1563/9/4
f 1563/9/4 1562/9/4 1564/9/4
f 1565/10/4 1566/10/4 1567/10/4
f 1567/10/4 1566/10/4 1568/10/4
f 1569/10/4 1570/10/4 1571/10/4
f 1571/10/4 1570/10/4 1572/10/4
f 1573/10/4 1574/10/4 1575/10/4
f 1575/10/4 1574/10/4 1576/10/4
f 1577/10/4 1578/10/4 1579/10/4
f 1579/10/4 1578/10/4 1580/10/4
f 1581/10/4 1582/10/4 1583/10/4
f 1583/10/4 1582/10/4 1584/10/4
f 1585/10/4 1586/10/4 1587/10/4
f 1587/10/4 1586/10/4 1588/10/4
f 1589/10/4 1590/10/4 1591/10/4
f 1591/10/4 1590/10/4 1592/10/4
f 1593/3/4 1594/3/4 1595/3/4
f 1595/3/4 1594/3/4 1596/3/4
f 1597/3/4 1598/3/4 1599/3/4
f 1599/3/4 1598/3/4 1600/3/4
f 1601/3/4 1602/3/4 1603/3/4
f 1603/3/4 1602/3/4 1604/3/4
f 1605/3/4 1606/3/4 1607/3/4
f 1607/3/4 1606/3/4 1608/3/4
f 1609/10/4 1610/10/4 1611/10/4
f 1611/10/4 1610/10/4 1612/10/4
f 1613/10/4 1614/10/4 1615/10/4
f 1615/10/4 1614/10/4 1616/10/4
f 1617/10/4 1618/10/4 1619/10/4
f 1619/10/4 1618/10/4 1620/10/4
f 1621/10/4 1622/10/4 1623/10/4
f 1623/10/4 1622/10/4 1624/10/4
f 1625/10/4 1626/10/4 1627/10/4
f 1627/10/4 1626/10/4 1628/10/4
f 1629/10/4 1630/10/4 1631/10/4
f 1631/10/4 1630/10/4 1632/10/4
f 1633/10/4 1634/10/4 1635/10/4
f 1635/10/4 1634/10/4 1636/10/4
f 1637/3/4 1638/3/4 1639/3/4
f 1639/3/4 1638/3/4 1640/3/4
f 1641/3/4 1642/3/4 1643/3/4
f 1643/3/4 1642/3/4 1644/3/4
f 1645/10/4 1646/10/4 1647/10/4
f 1647/10/4 1646/10/4 1648/10/4
f 1649/10/4 1650/10/4 1651/10/4
f 1651/10/4 1650/10/4 1652/10/4
f 1653/10/4 1654/10/4 1655/10/4
f 1655/10/4 1654/10/4 1656/10/4
f 1657/10/4 1658/10/4 1659/10/4
f 1659/10/4 1658/10/4 1660/10/4
f 1661/3/4 1662/3/4 1663/3/4
f 1663/3/4 1662/3/4 1664/3/4
f 1665/3/4 1666/3/4 1667/3/4
f 1667/3/4 1666/3/4 1668/3/4
f 1669/10/4 1670/10/4 1671/10/4
f 1671/10/4 1670/10/4 1672/10/4
f 1673/10/4 1674/10/4 1675/10/4
f 1675/10/4 1674/10/4 1676/10/4
f 1677/10/4 1678/10/4 1679/10/4
f 1679/10/4 1678/10/4 1680/10/4
f 1681/10/4 1682/10/4 1683/10/4
f 1683/10/4 1682/10/4 1684/10/4
f 1685/10/4 1686/10/4 1687/10/4
f 1687/10/4 1686/10/4 1688/10/4
f 1689/4/4 1690/4/4 1692/4/4
f 1690/3/4 1691/3/4 1692/3/4
f 1692/3/4 1691/3/4 1693/3/4
f 1693/3/4 1691/3/4 1694/3/4
f 1689/4/4 1692/4/4 1695/4/4
f 1692/1/4 1693/1/4 1695/1/4
f 1695/1/4 1693/1/4 1696/1/4
f 1689/4/4 1695/4/4 1698/4/4
f 1696/3/4 1697/3/4 1699/3/4
f 1698/4/4 1695/4/4 1699/4/4
f 1695/3/4 1696/3/4 1699/3/4
f 1699/3/4 1697/3/4 1700/3/4
f 1703/4/5 1702/4/5 1701/4/5
f 1704/4/5 1702/4/5 1703/4/5
f 1705/4/5 1702/4/5 1704/4/5
f 1706/4/5 1702/4/5 1705/4/5
f 1707/7/5 1704/7/5 1703/7/5
f 1707/8/5 1705/8/5 1704/8/5
f 1708/7/5 1706/7/5 1705/7/5
f 1708/8/5 1705/8/5 1707/8/5
f 1709/7/5 1707/7/5 1703/7/5
f 1709/7/5 1708/7/5 1707/7/5
f 1710/7/5 1706/7/5 1708/7/5
f 1710/7/5 1708/7/5 1709/7/5
f 1711/7/5 1709/7/5 1703/7/5
f 1712/8/5 1710/8/5 1709/8/5
f 1712/7/5 1709/7/5 1711/7/5
f 1713/7/5 1706/7/5 1710/7/5
f 1713/8/5 1710/8/5 1712/8/5
f 1714/7/5 1706/7/5 1713/7/5
f 1715/4/5 1712/4/5 1711/4/5
f 1715/4/5 1713/4/5 1712/4/5
f 1715/4/5 1714/4/5 1713/4/5
f 1716/4/5 1714/4/5 1715/4/5
f 1721/5/5 1718/5/5 1717/5/5
f 1721/5/5 1720/5/5 1719/5/5
f 1721/5/5 1719/5/5 1718/5/5
f 1722/5/5 1720/5/5 1721/5/5
f 1725/5/5 1724/5/5 1723/5/5
f 1726/5/5 1724/5/5 1725/5/5
f 1727/5/5 1724/5/5 1726/5/5
f 1728/5/5 1724/5/5 1727/5/5
f 1731/5/5 1730/5/5 1729/5/5
f 1732/5/5 1730/5/5 1731/5/5
f 1735/5/5 1734/5/5 1733/5/5
f 1736/5/5 1734/5/5 1735/5/5
f 1737/5/5 1734/5/5 1736/5/5
f 1738/5/5 1734/5/5 1737/5/5
f 1739/9/5 1736/9/5 1735/9/5
f 1740/9/5 1736/9/5 1739/9/5
f 1741/9/5 1738/9/5 1737/9/5
f 1742/9/5 1738/9/5 1741/9/5
f 1743/5/5 1740/5/5 1739/5/5
f 1743/5/5 1741/5/5 1740/5/5
f 1743/5/5 1742/5/5 1741/5/5
f 1744/5/5 1742/5/5 1743/5/5
f 1747/5/5 1746/5/5 1745/5/5
f 1748/5/5 1746/5/5 1747/5/5
f 1751/5/5 1750/5/5 1749/5/5
f 1752/5/5 1750/5/5 1751/5/5
f 1753/5/5 1750/5/5 1752/5/5
f 1754/5/5 1750/5/5 1753/5/5
f 1755/9/5 1752/9/5 1751/9/5
f 1756/9/5 1752/9/5 1755/9/5
f 1757/9/5 1754/9/5 1753/9/5
f 1758/9/5 1754/9/5 1757/9/5
f 1759/5/5 1756/5/5 1755/5/5
f 1759/5/5 1757/5/5 1756/5/5
f 1759/5/5 1758/5/5 1757/5/5
f 1760/5/5 1758/5/5 1759/5/5
f 1763/5/5 1762/5/5 1761/5/5
f 1764/5/5 1762/5/5 1763/5/5
f 1769/11/5 1766/11/5 1765/11/5
f 1770/11/5 1766/11/5 1769/11/5
f 1771/11/5 1768/11/5 1767/11/5
f 1772/11/5 1768/11/5 1771/11/5
f 1777/11/5 1774/11/5 1773/11/5
f 1778/11/5 1774/11/5 1777/11/5
f 1779/11/5 1776/11/5 1775/11/5
f 1780/11/5 1776/11/5 1779/11/5
f 1785/11/5 1782/11/5 1781/11/5
f 1786/11/5 1782/11/5 1785/11/5
f 1787/11/5 1784/11/5 1783/11/5
f 1788/11/5 1784/11/5 1787/11/5
f 1793/11/5 1790/11/5 1789/11/5
f 1794/11/5 1790/11/5 1793/11/5
f 1795/11/5 1792/11/5 1791/11/5
f 1796/11/5 1792/11/5 1795/11/5
f 1801/9/5 1798/9/5 1797/9/5
f 1802/9/5 1798/9/5 1801/9/5
f 1803/9/5 1800/9/5 1799/9/5
f 1804/9/5 1800/9/5 1803/9/5
f 1805/9/5 1801/9/5 1797/9/5
f 1806/9/5 1798/9/5 1802/9/5
f 1807/9/5 1803/9/5 1799/9/5
f 1808/9/5 1800/9/5 1804/9/5
f 1809/9/5 1805/9/5 1797/9/5
f 1809/9/5 1806/9/5 1805/9/5
f 1810/9/5 1806/9/5 1809/9/5
f 1811/9/5 1806/9/5 1810/9/5
f 1812/9/5 1798/9/5 1806/9/5
f 1812/9/5 1806/9/5 1811/9/5
f 1813/9/5 1808/9/5 1807/9/5
f 1813/9/5 1807/9/5 1799/9/5
f 1814/9/5 1808/9/5 1813/9/5
f 1815/9/5 1808/9/5 1814/9/5
f 1816/9/5 1800/9/5 1808/9/5
f 1816/9/5 1808/9/5 1815/9/5
f 1817/9/5 1811/9/5 1810/9/5
f 1818/9/5 1811/9/5 1817/9/5
f 1819/9/5 1815/9/5 1814/9/5
f 1820/9/5 1815/9/5 1819/9/5
f 1825/11/5 1822/11/5 1821/11/5
f 1826/11/5 1822/11/5 1825/11/5
f 1827/11/5 1824/11/5 1823/11/5
f 1828/11/5 1824/11/5 1827/11/5
f 1834/9/5 1830/9/5 1829/9/5
f 1835/9/5 1830/9/5 1834/9/5
f 1838/9/5 1832/9/5 1831/9/5
f 1839/9/5 1832/9/5 1838/9/5
f 1841/9/5 1836/9/5 1835/9/5
f 1841/9/5 1834/9/5 1833/9/5
f 1841/9/5 1835/9/5 1834/9/5
f 1842/9/5 1836/9/5 1841/9/5
f 1843/9/5 1839/9/5 1838/9/5
f 1843/9/5 1838/9/5 1837/9/5
f 1843/9/5 1840/9/5 1839/9/5
f 1844/9/5 1840/9/5 1843/9/5
f 1845/9/5 1841/9/5 1833/9/5
f 1846/9/5 1836/9/5 1842/9/5
f 1847/9/5 1843/9/5 1837/9/5
f 1848/9/5 1840/9/5 1844/9/5
f 1849/9/5 1845/9/5 1833/9/5
f 1849/9/5 1846/9/5 1845/9/5
f 1850/9/5 1836/9/5 1846/9/5
f 1850/9/5 1846/9/5 1849/9/5
f 1851/9/5 1848/9/5 1847/9/5
f 1851/9/5 1847/9/5 1837/9/5
f 1852/9/5 1840/9/5 1848/9/5
f 1852/9/5 1848/9/5 1851/9/5
f 1853/7/6 1854/7/6 1855/7/6
f 1855/7/6 1854/7/6 1856/7/6
f 1857/1/6 1858/1/6 1859/1/6
f 1859/1/6 1858/1/6 1860/1/6
f 1860/1/6 1858/1/6 1861/1/6
f 1861/1/6 1858/1/6 1862/1/6
f 1862/1/6 1858/1/6 1863/1/6
f 1863/1/6 1858/1/6 1864/1/6
f 1864/1/6 1858/1/6 1865/1/6
f 1865/1/6 1858/1/6 1866/1/6
f 1862/1/6 1863/1/6 1867/1/6
f 1867/1/6 1863/1/6 1868/1/6
f 1857/1/6 1859/1/6 1869/1/6
f 1860/1/6 1861/1/6 1870/1/6
f 1864/1/6 1865/1/6 1871/1/6
f 1866/1/6 1858/1/6 1872/1/6
f 1857/1/6 1869/1/6 1873/1/6
f 1869/1/6 1870/1/6 1873/1/6
f 1873/1/6 1870/1/6 1874/1/6
f 1870/1/6 1861/1/6 1875/1/6
f 1874/1/6 1870/1/6 1875/1/6
f 1875/1/6 1861/1/6 1876/1/6
f 1876/1/6 1861/1/6 1877/1/6
f 1862/1/6 1867/1/6 1878/1/6
f 1868/1/6 1863/1/6 1879/1/6
f 1864/1/6 1871/1/6 1880/1/6
f 1871/1/6 1872/1/6 1880/1/6
f 1880/1/6 1872/1/6 1881/1/6
f 1881/1/6 1872/1/6 1882/1/6
f 1882/1/6 1872/1/6 1883/1/6
f 1872/1/6 1858/1/6 1884/1/6
f 1883/1/6 1872/1/6 1884/1/6
f 1874/1/6 1875/1/6 1885/1/6
f 1877/1/6 1878/1/6 1886/1/6
f 1876/1/6 1877/1/6 1886/1/6
f 1878/1/6 1867/1/6 1887/1/6
f 1886/1/6 1878/1/6 1887/1/6
f 1868/1/6 1879/1/6 1888/1/6
f 1880/1/6 1881/1/6 1888/1/6
f 1879/1/6 1880/1/6 1888/1/6
f 1888/1/6 1881/1/6 1889/1/6
f 1882/1/6 1883/1/6 1890/1/6
f 1857/1/6 1873/1/6 1891/1/6
f 1874/1/6 1885/1/6 1892/1/6
f 1886/1/6 1887/1/6 1892/1/6
f 1885/1/6 1886/1/6 1892/1/6
f 1888/1/6 1889/1/6 1892/1/6
f 1887/1/6 1888/1/6 1892/1/6
f 1889/1/6 1890/1/6 1892/1/6
f 1892/1/6 1890/1/6 1893/1/6
f 1893/1/6 1890/1/6 1894/1/6
f 1894/1/6 1890/1/6 1895/1/6
f 1895/1/6 1890/1/6 1896/1/6
f 1896/1/6 1890/1/6 1897/1/6
f 1890/1/6 1883/1/6 1898/1/6
f 1897/1/6 1890/1/6 1898/1/6
f 1898/1/6 1883/1/6 1899/1/6
f 1884/1/6 1858/1/6 1900/1/6
f 1891/1/6 1892/1/6 1901/1/6
f 1892/1/6 1893/1/6 1901/1/6
f 1901/1/6 1893/1/6 1902/1/6
f 1898/1/6 1899/1/6 1903/1/6
f 1899/1/6 1900/1/6 1903/1/6
f 1903/1/6 1900/1/6 1904/1/6
f 1891/1/6 1901/1/6 1905/1/6
f 1902/1/6 1893/1/6 1906/1/6
f 1898/1/6 1903/1/6 1907/1/6
f 1904/1/6 1900/1/6 1908/1/6
f 1905/1/6 1906/1/6 1909/1/6
f 1906/1/6 1893/1/6 1909/1/6
f 1894/1/6 1895/1/6 1910/1/6
f 1896/1/6 1897/1/6 1911/1/6
f 1898/1/6 1907/1/6 1912/1/6
f 1907/1/6 1908/1/6 1912/1/6
f 1857/1/6 1891/1/6 1913/1/6
f 1909/1/6 1910/1/6 1913/1/6
f 1891/1/6 1905/1/6 1913/1/6
f 1905/1/6 1909/1/6 1913/1/6
f 1910/1/6 1895/1/6 1914/1/6
f 1913/1/6 1910/1/6 1914/1/6
f 1911/1/6 1912/1/6 1915/1/6
f 1896/1/6 1911/1/6 1915/1/6
f 1912/1/6 1908/1/6 1916/1/6
f 1915/1/6 1912/1/6 1916/1/6
f 1900/1/6 1858/1/6 1916/1/6
f 1908/1/6 1900/1/6 1916/1/6
f 1914/1/6 1895/1/6 1917/1/6
f 1896/1/6 1915/1/6 1918/1/6
f 1914/1/6 1917/1/6 1919/1/6
f 1917/1/6 1918/1/6 1919/1/6
f 1919/1/6 1918/1/6 1920/1/6
f 1920/1/6 1918/1/6 1921/1/6
f 1921/1/6 1918/1/6 1922/1/6
f 1922/1/6 1918/1/6 1923/1/6
f 1918/1/6 1915/1/6 1924/1/6
f 1923/1/6 1918/1/6 1924/1/6
f 1914/1/6 1919/1/6 1925/1/6
f 1920/1/6 1921/1/6 1926/1/6
f 1922/1/6 1923/1/6 1927/1/6
f 1924/1/6 1915/1/6 1928/1/6
f 1857/1/6 1913/1/6 1929/1/6
f 1925/1/6 1926/1/6 1930/1/6
f 1914/1/6 1925/1/6 1930/1/6
f 1927/1/6 1928/1/6 1931/1/6
f 1928/1/6 1915/1/6 1931/1/6
f 1916/1/6 1858/1/6 1932/1/6
f 1929/1/6 1930/1/6 1933/1/6
f 1933/1/6 1930/1/6 1934/1/6
f 1934/1/6 1930/1/6 1935/1/6
f 1930/1/6 1926/1/6 1936/1/6
f 1935/1/6 1930/1/6 1936/1/6
f 1926/1/6 1921/1/6 1936/1/6
f 1927/1/6 1931/1/6 1937/1/6
f 1931/1/6 1932/1/6 1937/1/6
f 1922/1/6 1927/1/6 1937/1/6
f 1937/1/6 1932/1/6 1938/1/6
f 1938/1/6 1932/1/6 1939/1/6
f 1939/1/6 1932/1/6 1940/1/6
f 1929/1/6 1933/1/6 1941/1/6
f 1934/1/6 1935/1/6 1942/1/6
f 1938/1/6 1939/1/6 1943/1/6
f 1940/1/6 1932/1/6 1944/1/6
f 1857/1/6 1929/1/6 1945/1/6
f 1941/1/6 1942/1/6 1945/1/6
f 1929/1/6 1941/1/6 1945/1/6
f 1942/1/6 1935/1/6 1946/1/6
f 1945/1/6 1942/1/6 1946/1/6
f 1936/1/6 1921/1/6 1947/1/6
f 1947/1/6 1921/1/6 1948/1/6
f 1922/1/6 1937/1/6 1949/1/6
f 1949/1/6 1937/1/6 1950/1/6
f 1943/1/6 1944/1/6 1951/1/6
f 1938/1/6 1943/1/6 1951/1/6
f 1944/1/6 1932/1/6 1952/1/6
f 1932/1/6 1858/1/6 1952/1/6
f 1951/1/6 1944/1/6 1952/1/6
f 1945/1/6 1946/1/6 1953/1/6
f 1949/1/6 1950/1/6 1953/1/6
f 1951/1/6 1952/1/6 1953/1/6
f 1948/1/6 1949/1/6 1953/1/6
f 1946/1/6 1947/1/6 1953/1/6
f 1950/1/6 1951/1/6 1953/1/6
f 1947/1/6 1948/1/6 1953/1/6
f 1953/1/6 1952/1/6 1954/1/6
f 1955/1/6 1956/1/6 1957/1/6
f 1957/1/6 1956/1/6 1958/1/6
f 1958/1/6 1956/1/6 1959/1/6
f 1959/1/6 1956/1/6 1960/1/6
f 1960/1/6 1956/1/6 1961/1/6
f 1961/1/6 1956/1/6 1962/1/6
f 1962/1/6 1956/1/6 1963/1/6
f 1963/1/6 1956/1/6 1964/1/6
f 1957/1/6 1958/1/6 1965/1/6
f 1965/1/6 1958/1/6 1966/1/6
f 1963/1/6 1964/1/6 1967/1/6
f 1967/1/6 1964/1/6 1968/1/6
f 1957/1/6 1965/1/6 1969/1/6
f 1966/1/6 1958/1/6 1970/1/6
f 1970/1/6 1958/1/6 1971/1/6
f 1959/1/6 1960/1/6 1972/1/6
f 1961/1/6 1962/1/6 1973/1/6
f 1963/1/6 1967/1/6 1974/1/6
f 1974/1/6 1967/1/6 1975/1/6
f 1968/1/6 1964/1/6 1976/1/6
f 1957/1/6 1969/1/6 1977/1/6
f 1970/1/6 1971/1/6 1977/1/6
f 1971/1/6 1972/1/6 1977/1/6
f 1969/1/6 1970/1/6 1977/1/6
f 1977/1/6 1972/1/6 1978/1/6
f 1975/1/6 1976/1/6 1979/1/6
f 1974/1/6 1975/1/6 1979/1/6
f 1973/1/6 1974/1/6 1979/1/6
f 1976/1/6 1964/1/6 1980/1/6
f 1979/1/6 1976/1/6 1980/1/6
f 1978/1/6 1972/1/6 1981/1/6
f 1972/1/6 1960/1/6 1982/1/6
f 1981/1/6 1972/1/6 1982/1/6
f 1973/1/6 1979/1/6 1983/1/6
f 1961/1/6 1973/1/6 1983/1/6
f 1983/1/6 1979/1/6 1984/1/6
f 1978/1/6 1981/1/6 1985/1/6
f 1982/1/6 1960/1/6 1986/1/6
f 1986/1/6 1960/1/6 1987/1/6
f 1961/1/6 1983/1/6 1988/1/6
f 1988/1/6 1983/1/6 1989/1/6
f 1984/1/6 1979/1/6 1990/1/6
f 1978/1/6 1985/1/6 1991/1/6
f 1989/1/6 1990/1/6 1991/1/6
f 1988/1/6 1989/1/6 1991/1/6
f 1986/1/6 1987/1/6 1991/1/6
f 1987/1/6 1988/1/6 1991/1/6
f 1985/1/6 1986/1/6 1991/1/6
f 1990/1/6 1979/1/6 1992/1/6
f 1991/1/6 1990/1/6 1992/1/6
f 1957/1/6 1977/1/6 1993/1/6
f 1978/1/6 1991/1/6 1994/1/6
f 1992/1/6 1979/1/6 1995/1/6
f 1980/1/6 1964/1/6 1996/1/6
f 1993/1/6 1994/1/6 1997/1/6
f 1994/1/6 1991/1/6 1998/1/6
f 1997/1/6 1994/1/6 1998/1/6
f 1992/1/6 1995/1/6 1999/1/6
f 1995/1/6 1996/1/6 1999/1/6
f 1999/1/6 1996/1/6 2000/1/6
f 1993/1/6 1997/1/6 2001/1/6
f 2001/1/6 1997/1/6 2002/1/6
f 2000/1/6 1996/1/6 2003/1/6
f 2003/1/6 1996/1/6 2004/1/6
f 1993/1/6 2001/1/6 2005/1/6
f 2002/1/6 1997/1/6 2006/1/6
f 2000/1/6 2003/1/6 2007/1/6
f 2004/1/6 1996/1/6 2008/1/6
f 1993/1/6 2005/1/6 2009/1/6
f 2005/1/6 2006/1/6 2009/1/6
f 2006/1/6 1997/1/6 2010/1/6
f 2009/1/6 2006/1/6 2010/1/6
f 2010/1/6 1997/1/6 2011/1/6
f 1998/1/6 1991/1/6 2012/1/6
f 2012/1/6 1991/1/6 2013/1/6
f 1992/1/6 1999/1/6 2014/1/6
f 2014/1/6 1999/1/6 2015/1/6
f 2007/1/6 2008/1/6 2016/1/6
f 2000/1/6 2007/1/6 2016/1/6
f 2016/1/6 2008/1/6 2017/1/6
f 2008/1/6 1996/1/6 2018/1/6
f 2017/1/6 2008/1/6 2018/1/6
f 2010/1/6 2011/1/6 2019/1/6
f 2014/1/6 2015/1/6 2019/1/6
f 2015/1/6 2016/1/6 2019/1/6
f 2012/1/6 2013/1/6 2019/1/6
f 2013/1/6 2014/1/6 2019/1/6
f 2011/1/6 2012/1/6 2019/1/6
f 2016/1/6 2017/1/6 2019/1/6
f 2019/1/6 2017/1/6 2020/1/6
f 2020/1/6 2017/1/6 2021/1/6
f 2021/1/6 2017/1/6 2022/1/6
f 2022/1/6 2017/1/6 2023/1/6
f 2023/1/6 2017/1/6 2024/1/6
f 1993/1/6 2009/1/6 2025/1/6
f 2010/1/6 2019/1/6 2026/1/6
f 2026/1/6 2019/1/6 2027/1/6
f 2020/1/6 2021/1/6 2028/1/6
f 2028/1/6 2021/1/6 2029/1/6
f 2029/1/6 2021/1/6 2030/1/6
f 2022/1/6 2023/1/6 2031/1/6
f 2031/1/6 2023/1/6 2032/1/6
f 2032/1/6 2023/1/6 2033/1/6
f 2024/1/6 2017/1/6 2034/1/6
f 2034/1/6 2017/1/6 2035/1/6
f 2018/1/6 1996/1/6 2036/1/6
f 1993/1/6 2025/1/6 2037/1/6
f 2026/1/6 2027/1/6 2037/1/6
f 2025/1/6 2026/1/6 2037/1/6
f 2027/1/6 2028/1/6 2037/1/6
f 2028/1/6 2029/1/6 2037/1/6
f 2037/1/6 2029/1/6 2038/1/6
f 2034/1/6 2035/1/6 2039/1/6
f 2032/1/6 2033/1/6 2039/1/6
f 2035/1/6 2036/1/6 2039/1/6
f 2033/1/6 2034/1/6 2039/1/6
f 2036/1/6 1996/1/6 2040/1/6
f 2039/1/6 2036/1/6 2040/1/6
f 2030/1/6 2021/1/6 2041/1/6
f 2022/1/6 2031/1/6 2042/1/6
f 1993/1/6 2037/1/6 2043/1/6
f 2038/1/6 2029/1/6 2044/1/6
f 2044/1/6 2029/1/6 2045/1/6
f 2041/1/6 2042/1/6 2046/1/6
f 2030/1/6 2041/1/6 2046/1/6
f 2042/1/6 2031/1/6 2047/1/6
f 2046/1/6 2042/1/6 2047/1/6
f 2032/1/6 2039/1/6 2048/1/6
f 2048/1/6 2039/1/6 2049/1/6
f 2040/1/6 1996/1/6 2050/1/6
f 1993/1/6 2043/1/6 2051/1/6
f 2049/1/6 2050/1/6 2051/1/6
f 1957/1/6 1993/1/6 2051/1/6
f 2048/1/6 2049/1/6 2051/1/6
f 2047/1/6 2048/1/6 2051/1/6
f 2044/1/6 2045/1/6 2051/1/6
f 2046/1/6 2047/1/6 2051/1/6
f 2043/1/6 2044/1/6 2051/1/6
f 2045/1/6 2046/1/6 2051/1/6
f 2050/1/6 1996/1/6 2052/1/6
f 2051/1/6 2050/1/6 2052/1/6
f 1996/1/6 1964/1/6 2052/1/6
f 2053/10/6 2054/10/6 2063/10/6
f 2063/10/6 2054/10/6 2064/10/6
f 2059/10/6 2060/10/6 2065/10/6
f 2065/10/6 2060/10/6 2066/10/6
f 2055/10/6 2056/10/6 2071/10/6
f 2071/10/6 2056/10/6 2072/10/6
f 2057/10/6 2058/10/6 2073/10/6
f 2073/10/6 2058/10/6 2074/10/6
f 2069/10/6 2070/10/6 2079/10/6
f 2079/10/6 2070/10/6 2080/10/6
f 2061/10/6 2062/10/6 2081/10/6
f 2081/10/6 2062/10/6 2082/10/6
f 2075/10/6 2076/10/6 2083/10/6
f 2083/10/6 2076/10/6 2084/10/6
f 2067/10/6 2068/10/6 2085/10/6
f 2085/10/6 2068/10/6 2086/10/6
f 2077/10/6 2078/10/6 2093/10/6
f 2093/10/6 2078/10/6 2094/10/6
f 2095/10/6 2096/10/6 2099/10/6
f 2099/10/6 2096/10/6 2100/10/6
f 2097/10/6 2098/10/6 2101/10/6
f 2101/10/6 2098/10/6 2102/10/6
f 2087/10/6 2088/10/6 2103/10/6
f 2103/10/6 2088/10/6 2104/10/6
f 2091/10/6 2092/10/6 2105/10/6
f 2105/10/6 2092/10/6 2106/10/6
f 2089/10/6 2090/10/6 2111/10/6
f 2111/10/6 2090/10/6 2112/10/6
f 2113/10/6 2114/10/6 2119/10/6
f 2119/10/6 2114/10/6 2120/10/6
f 2117/10/6 2118/10/6 2121/10/6
f 2121/10/6 2118/10/6 2122/10/6
f 2107/10/6 2108/10/6 2123/10/6
f 2123/10/6 2108/10/6 2124/10/6
f 2109/10/6 2110/10/6 2125/10/6
f 2125/10/6 2110/10/6 2126/10/6
f 2127/10/6 2128/10/6 2135/10/6
f 2135/10/6 2128/10/6 2136/10/6
f 2133/10/6 2134/10/6 2137/10/6
f 2137/10/6 2134/10/6 2138/10/6
f 2129/10/6 2130/10/6 2139/10/6
f 2139/10/6 2130/10/6 2140/10/6
f 2115/10/6 2116/10/6 2141/10/6
f 2141/10/6 2116/10/6 2142/10/6
f 2131/10/6 2132/10/6 2143/10/6
f 2143/10/6 2132/10/6 2144/10/6
f 2151/10/6 2152/10/6 2155/10/6
f 2155/10/6 2152/10/6 2156/10/6
f 2145/10/6 2146/10/6 2157/10/6
f 2157/10/6 2146/10/6 2158/10/6
f 2149/10/6 2150/10/6 2159/10/6
f 2159/10/6 2150/10/6 2160/10/6
f 2153/10/6 2154/10/6 2161/10/6
f 2161/10/6 2154/10/6 2162/10/6
f 2167/10/6 2168/10/6 2171/10/6
f 2171/10/6 2168/10/6 2172/10/6
f 2147/10/6 2148/10/6 2173/10/6
f 2173/10/6 2148/10/6 2174/10/6
f 2169/10/6 2170/10/6 2175/10/6
f 2175/10/6 2170/10/6 2176/10/6
f 2163/10/6 2164/10/6 2179/10/6
f 2179/10/6 2164/10/6 2180/10/6
f 2165/10/6 2166/10/6 2181/10/6
f 2181/10/6 2166/10/6 2182/10/6
f 2187/10/6 2188/10/6 2191/10/6
f 2191/10/6 2188/10/6 2192/10/6
f 2189/10/6 2190/10/6 2193/10/6
f 2193/10/6 2190/10/6 2194/10/6
f 2183/10/6 2184/10/6 2197/10/6
f 2197/10/6 2184/10/6 2198/10/6
f 2177/10/6 2178/10/6 2199/10/6
f 2199/10/6 2178/10/6 2200/10/6
f 2185/10/6 2186/10/6 2201/10/6
f 2201/10/6 2186/10/6 2202/10/6
f 2195/10/6 2196/10/6 2211/10/6
f 2211/10/6 2196/10/6 2212/10/6
f 2205/10/6 2206/10/6 2213/10/6
f 2213/10/6 2206/10/6 2214/10/6
f 2209/10/6 2210/10/6 2219/10/6
f 2219/10/6 2210/10/6 2220/10/6
f 2203/10/6 2204/10/6 2221/10/6
f 2221/10/6 2204/10/6 2222/10/6
f 2207/10/6 2208/10/6 2227/10/6
f 2227/10/6 2208/10/6 2228/10/6
f 2223/10/6 2224/10/6 2229/10/6
f 2229/10/6 2224/10/6 2230/10/6
f 2215/10/6 2216/10/6 2231/10/6
f 2231/10/6 2216/10/6 2232/10/6
f 2217/10/6 2218/10/6 2233/10/6
f 2233/10/6 2218/10/6 2234/10/6
f 2225/10/6 2226/10/6 2235/10/6
f 2235/10/6 2226/10/6 2236/10/6
f 2237/3/6 2238/3/6 2241/3/6
f 2241/3/6 2238/3/6 2242/3/6
f 2239/3/6 2240/3/6 2243/3/6
f 2243/3/6 2240/3/6 2244/3/6
f 2237/3/6 2241/3/6 2245/3/6
f 2242/3/6 2238/3/6 2246/3/6
f 2239/3/6 2243/3/6 2247/3/6
f 2244/3/6 2240/3/6 2248/3/6
f 2237/3/6 2245/3/6 2249/3/6
f 2245/3/6 2246/3/6 2249/3/6
f 2249/3/6 2246/3/6 2250/3/6
f 2247/3/6 2248/3/6 2251/3/6
f 2248/3/6 2240/3/6 2251/3/6
f 2251/3/6 2240/3/6 2252/3/6
f 2237/3/6 2249/3/6 2253/3/6
f 2250/3/6 2246/3/6 2254/3/6
f 2247/3/6 2251/3/6 2255/3/6
f 2252/3/6 2240/3/6 2256/3/6
f 2253/3/6 2254/3/6 2257/3/6
f 2254/3/6 2246/3/6 2257/3/6
f 2257/3/6 2246/3/6 2258/3/6
f 2247/3/6 2255/3/6 2259/3/6
f 2255/3/6 2256/3/6 2259/3/6
f 2259/3/6 2256/3/6 2260/3/6
f 2253/3/6 2257/3/6 2261/3/6
f 2258/3/6 2246/3/6 2262/3/6
f 2247/3/6 2259/3/6 2263/3/6
f 2260/3/6 2256/3/6 2264/3/6
f 2246/3/6 2238/3/6 2265/3/6
f 2261/3/6 2262/3/6 2265/3/6
f 2262/3/6 2246/3/6 2265/3/6
f 2265/3/6 2238/3/6 2266/3/6
f 2239/3/6 2247/3/6 2267/3/6
f 2263/3/6 2264/3/6 2267/3/6
f 2247/3/6 2263/3/6 2267/3/6
f 2267/3/6 2264/3/6 2268/3/6
f 2261/3/6 2265/3/6 2269/3/6
f 2266/3/6 2238/3/6 2270/3/6
f 2239/3/6 2267/3/6 2271/3/6
f 2268/3/6 2264/3/6 2272/3/6
f 2261/3/6 2269/3/6 2273/3/6
f 2253/3/6 2261/3/6 2273/3/6
f 2269/3/6 2270/3/6 2273/3/6
f 2273/3/6 2270/3/6 2274/3/6
f 2274/3/6 2270/3/6 2275/3/6
f 2270/3/6 2238/3/6 2276/3/6
f 2275/3/6 2270/3/6 2276/3/6
f 2271/3/6 2272/3/6 2277/3/6
f 2239/3/6 2271/3/6 2277/3/6
f 2272/3/6 2264/3/6 2278/3/6
f 2277/3/6 2272/3/6 2278/3/6
f 2264/3/6 2256/3/6 2279/3/6
f 2278/3/6 2264/3/6 2279/3/6
f 2279/3/6 2256/3/6 2280/3/6
f 2253/3/6 2273/3/6 2281/3/6
f 2274/3/6 2275/3/6 2282/3/6
f 2278/3/6 2279/3/6 2283/3/6
f 2280/3/6 2256/3/6 2284/3/6
f 2237/3/6 2253/3/6 2285/3/6
f 2281/3/6 2282/3/6 2285/3/6
f 2253/3/6 2281/3/6 2285/3/6
f 2282/3/6 2275/3/6 2286/3/6
f 2285/3/6 2282/3/6 2286/3/6
f 2283/3/6 2284/3/6 2287/3/6
f 2278/3/6 2283/3/6 2287/3/6
f 2284/3/6 2256/3/6 2288/3/6
f 2287/3/6 2284/3/6 2288/3/6
f 2256/3/6 2240/3/6 2288/3/6
f 2289/3/6 2290/3/6 2293/3/6
f 2293/3/6 2290/3/6 2294/3/6
f 2291/3/6 2292/3/6 2295/3/6
f 2295/3/6 2292/3/6 2296/3/6
f 2289/3/6 2293/3/6 2297/3/6
f 2294/3/6 2290/3/6 2298/3/6
f 2298/3/6 2290/3/6 2299/3/6
f 2291/3/6 2295/3/6 2302/3/6
f 2302/3/6 2295/3/6 2303/3/6
f 2296/3/6 2292/3/6 2304/3/6
f 2299/3/6 2300/3/6 2305/3/6
f 2297/3/6 2298/3/6 2305/3/6
f 2298/3/6 2299/3/6 2305/3/6
f 2305/3/6 2300/3/6 2306/3/6
f 2302/3/6 2303/3/6 2307/3/6
f 2303/3/6 2304/3/6 2307/3/6
f 2301/3/6 2302/3/6 2307/3/6
f 2307/3/6 2304/3/6 2308/3/6
f 2297/3/6 2305/3/6 2309/3/6
f 2306/3/6 2300/3/6 2310/3/6
f 2301/3/6 2307/3/6 2311/3/6
f 2308/3/6 2304/3/6 2312/3/6
f 2297/3/6 2309/3/6 2313/3/6
f 2309/3/6 2310/3/6 2313/3/6
f 2313/3/6 2310/3/6 2314/3/6
f 2311/3/6 2312/3/6 2315/3/6
f 2312/3/6 2304/3/6 2315/3/6
f 2315/3/6 2304/3/6 2316/3/6
f 2297/3/6 2313/3/6 2317/3/6
f 2314/3/6 2310/3/6 2318/3/6
f 2311/3/6 2315/3/6 2319/3/6
f 2316/3/6 2304/3/6 2320/3/6
f 2289/3/6 2297/3/6 2321/3/6
f 2297/3/6 2317/3/6 2321/3/6
f 2317/3/6 2318/3/6 2321/3/6
f 2321/3/6 2318/3/6 2322/3/6
f 2319/3/6 2320/3/6 2323/3/6
f 2320/3/6 2304/3/6 2323/3/6
f 2304/3/6 2292/3/6 2323/3/6
f 2323/3/6 2292/3/6 2324/3/6
f 2289/3/6 2321/3/6 2325/3/6
f 2322/3/6 2318/3/6 2326/3/6
f 2319/3/6 2323/3/6 2327/3/6
f 2324/3/6 2292/3/6 2328/3/6
f 2325/3/6 2326/3/6 2329/3/6
f 2318/3/6 2310/3/6 2329/3/6
f 2326/3/6 2318/3/6 2329/3/6
f 2329/3/6 2310/3/6 2330/3/6
f 2319/3/6 2327/3/6 2331/3/6
f 2327/3/6 2328/3/6 2331/3/6
f 2311/3/6 2319/3/6 2331/3/6
f 2331/3/6 2328/3/6 2332/3/6
f 2325/3/6 2329/3/6 2333/3/6
f 2330/3/6 2310/3/6 2334/3/6
f 2311/3/6 2331/3/6 2335/3/6
f 2332/3/6 2328/3/6 2336/3/6
f 2289/3/6 2325/3/6 2337/3/6
f 2325/3/6 2333/3/6 2337/3/6
f 2333/3/6 2334/3/6 2337/3/6
f 2310/3/6 2300/3/6 2338/3/6
f 2337/3/6 2334/3/6 2338/3/6
f 2334/3/6 2310/3/6 2338/3/6
f 2335/3/6 2336/3/6 2339/3/6
f 2301/3/6 2311/3/6 2339/3/6
f 2311/3/6 2335/3/6 2339/3/6
f 2336/3/6 2328/3/6 2340/3/6
f 2339/3/6 2336/3/6 2340/3/6
f 2328/3/6 2292/3/6 2340/3/6
f 2341/3/6 2342/3/6 2345/3/6
f 2345/3/6 2342/3/6 2346/3/6
f 2343/3/6 2344/3/6 2347/3/6
f 2347/3/6 2344/3/6 2348/3/6
f 2349/3/6 2350/3/6 2353/3/6
f 2353/3/6 2350/3/6 2354/3/6
f 2351/3/6 2352/3/6 2355/3/6
f 2355/3/6 2352/3/6 2356/3/6
f 2357/5/6 2358/5/6 2360/5/6
f 2360/5/6 2358/5/6 2361/5/6
f 2359/5/6 2360/5/6 2363/5/6
f 2361/5/6 2362/5/6 2363/5/6
f 2360/5/6 2361/5/6 2363/5/6
f 2363/5/6 2362/5/6 2364/5/6
f 2365/5/6 2366/5/6 2367/5/6
f 2367/5/6 2366/5/6 2368/5/6
f 2368/5/6 2366/5/6 2369/5/6
f 2369/5/6 2366/5/6 2370/5/6
f 2371/5/6 2372/5/6 2375/5/6
f 2373/5/6 2374/5/6 2375/5/6
f 2372/5/6 2373/5/6 2375/5/6
f 2375/5/6 2374/5/6 2376/5/6
f 2377/5/6 2378/5/6 2379/5/6
f 2379/5/6 2378/5/6 2380/5/6
f 2381/5/6 2382/5/6 2383/5/6
f 2383/5/6 2382/5/6 2384/5/6
f 2384/5/6 2382/5/6 2385/5/6
f 2385/5/6 2382/5/6 2386/5/6
f 2387/5/6 2388/5/6 2391/5/6
f 2389/5/6 2390/5/6 2391/5/6
f 2388/5/6 2389/5/6 2391/5/6
f 2391/5/6 2390/5/6 2392/5/6
f 2393/5/6 2394/5/6 2395/5/6
f 2395/5/6 2394/5/6 2396/5/6
f 2396/5/6 2394/5/6 2397/5/6
f 2397/5/6 2394/5/6 2398/5/6
f 2396/5/6 2397/5/6 2399/5/6
f 2399/5/6 2397/5/6 2400/5/6
f 2401/3/6 2402/3/6 2405/3/6
f 2405/3/6 2402/3/6 2406/3/6
f 2403/3/6 2404/3/6 2407/3/6
f 2407/3/6 2404/3/6 2408/3/6
f 2409/3/6 2410/3/6 2413/3/6
f 2413/3/6 2410/3/6 2414/3/6
f 2411/3/6 2412/3/6 2415/3/6
f 2415/3/6 2412/3/6 2416/3/6
f 2417/3/6 2418/3/6 2421/3/6
f 2421/3/6 2418/3/6 2422/3/6
f 2419/3/6 2420/3/6 2423/3/6
f 2423/3/6 2420/3/6 2424/3/6
f 2425/3/6 2426/3/6 2429/3/6
f 2429/3/6 2426/3/6 2430/3/6
f 2427/3/6 2428/3/6 2431/3/6
f 2431/3/6 2428/3/6 2432/3/6
f 2433/3/6 2434/3/6 2437/3/6
f 2437/3/6 2434/3/6 2438/3/6
f 2435/3/6 2436/3/6 2439/3/6
f 2439/3/6 2436/3/6 2440/3/6
f 2441/3/6 2442/3/6 2445/3/6
f 2445/3/6 2442/3/6 2446/3/6
f 2443/3/6 2444/3/6 2447/3/6
f 2447/3/6 2444/3/6 2448/3/6
f 2449/3/6 2450/3/6 2453/3/6
f 2453/3/6 2450/3/6 2454/3/6
f 2451/3/6 2452/3/6 2455/3/6
f 2455/3/6 2452/3/6 2456/3/6
f 2457/3/6 2458/3/6 2461/3/6
f 2461/3/6 2458/3/6 2462/3/6
f 2459/3/6 2460/3/6 2463/3/6
f 2463/3/6 2460/3/6 2464/3/6
f 2465/9/6 2466/9/6 2469/9/6
f 2469/9/6 2466/9/6 2470/9/6
f 2467/9/6 2468/9/6 2471/9/6
f 2471/9/6 2468/9/6 2472/9/6
f 2465/9/6 2469/9/6 2473/9/6
f 2470/9/6 2466/9/6 2474/9/6
f 2467/9/6 2471/9/6 2475/9/6
f 2472/9/6 2468/9/6 2476/9/6
f 2465/9/6 2473/9/6 2477/9/6
f 2473/9/6 2474/9/6 2477/9/6
f 2477/9/6 2474/9/6 2478/9/6
f 2478/9/6 2474/9/6 2479/9/6
f 2474/9/6 2466/9/6 2480/9/6
f 2479/9/6 2474/9/6 2480/9/6
f 2475/9/6 2476/9/6 2481/9/6
f 2467/9/6 2475/9/6 2481/9/6
f 2481/9/6 2476/9/6 2482/9/6
f 2482/9/6 2476/9/6 2483/9/6
f 2476/9/6 2468/9/6 2484/9/6
f 2483/9/6 2476/9/6 2484/9/6
f 2478/9/6 2479/9/6 2485/9/6
f 2485/9/6 2479/9/6 2486/9/6
f 2482/9/6 2483/9/6 2487/9/6
f 2487/9/6 2483/9/6 2488/9/6
f 2489/11/6 2490/11/6 2493/11/6
f 2493/11/6 2490/11/6 2494/11/6
f 2491/11/6 2492/11/6 2495/11/6
f 2495/11/6 2492/11/6 2496/11/6
f 2497/9/6 2498/9/6 2502/9/6
f 2502/9/6 2498/9/6 2503/9/6
f 2499/9/6 2500/9/6 2506/9/6
f 2506/9/6 2500/9/6 2507/9/6
f 2503/9/6 2504/9/6 2509/9/6
f 2501/9/6 2502/9/6 2509/9/6
f 2502/9/6 2503/9/6 2509/9/6
f 2509/9/6 2504/9/6 2510/9/6
f 2506/9/6 2507/9/6 2511/9/6
f 2505/9/6 2506/9/6 2511/9/6
f 2507/9/6 2508/9/6 2511/9/6
f 2511/9/6 2508/9/6 2512/9/6
f 2501/9/6 2509/9/6 2513/9/6
f 2510/9/6 2504/9/6 2514/9/6
f 2505/9/6 2511/9/6 2515/9/6
f 2512/9/6 2508/9/6 2516/9/6
f 2501/9/6 2513/9/6 2517/9/6
f 2513/9/6 2514/9/6 2517/9/6
f 2514/9/6 2504/9/6 2518/9/6
f 2517/9/6 2514/9/6 2518/9/6
f 2515/9/6 2516/9/6 2519/9/6
f 2505/9/6 2515/9/6 2519/9/6
f 2516/9/6 2508/9/6 2520/9/6
f 2519/9/6 2516/9/6 2520/9/6
f 2521/11/6 2522/11/6 2525/11/6
f 2525/11/6 2522/11/6 2526/11/6
f 2523/11/6 2524/11/6 2527/11/6
f 2527/11/6 2524/11/6 2528/11/6
f 2529/11/6 2530/11/6 2533/11/6
f 2533/11/6 2530/11/6 2534/11/6
f 2531/11/6 2532/11/6 2535/11/6
f 2535/11/6 2532/11/6 2536/11/6
f 2537/5/6 2538/5/6 2541/5/6
f 2541/5/6 2538/5/6 2542/5/6
f 2539/5/6 2540/5/6 2543/5/6
f 2543/5/6 2540/5/6 2544/5/6
f 2545/5/6 2546/5/6 2549/5/6
f 2549/5/6 2546/5/6 2550/5/6
f 2547/5/6 2548/5/6 2551/5/6
f 2551/5/6 2548/5/6 2552/5/6
